{
    "mgz_advanced_contact": {
        "column": {
            "contact_id": true,
            "name": true,
            "email": true,
            "telephone": true,
            "comment": true,
            "is_active": true,
            "store_id": true,
            "creation_time": true
        },
        "constraint": {
            "PRIMARY": true,
            "MGZ_ADVANCED_CONTACT_STORE_ID_STORE_STORE_ID": true
        }
    }
}