<?xml version="1.0" encoding="UTF-8" standalone="no"?>
<!DOCTYPE svg PUBLIC "-//W3C//DTD SVG 1.1//EN" "http://www.w3.org/Graphics/SVG/1.1/DTD/svg11.dtd" >
<svg xmlns="http://www.w3.org/2000/svg"
><metadata
></metadata
><defs
><font horiz-adv-x="500"
><font-face font-family="CoreMellowW01-57CnMedium" units-per-em="1000" ascent="938" descent="-224"
></font-face
><missing-glyph horiz-adv-x="197" d=""
></missing-glyph
><glyph unicode="&#x9;" horiz-adv-x="197" d=""
></glyph
><glyph unicode="&#xa;" horiz-adv-x="0" d=""
></glyph
><glyph unicode="&#xd;" horiz-adv-x="197" d=""
></glyph
><glyph unicode=" " horiz-adv-x="197" d=""
></glyph
><glyph unicode="!" horiz-adv-x="224" d="M112 174q-23 0 -32.5 9T70 204Q67 319 64.5 431.5T60 659v19q0 14 11.5 24T112 712q29 0 40.5 -10T164 678V659Q162 544 159.5 431.5T154 204q0 -12 -9.5 -21T112 174ZM112 -12Q86 -12 72 1T58 37V70q0 23 14 36t40 13q26 0 40 -13T166 70V37Q166 14 152 1T112 -12Z"
></glyph
><glyph unicode="&quot;" horiz-adv-x="377" d="M104 416q-26 0 -37 9T56 448V680q0 12 11 22t37 10q26 0 37 -10t11 -22V448q0 -14 -11 -23t-37 -9ZM273 416q-26 0 -37 9t-11 23V680q0 12 11 22t37 10q26 0 37 -10t11 -22V448q0 -14 -11 -23t-37 -9Z"
></glyph
><glyph unicode="#" horiz-adv-x="532" d="M318 174H214V43q0 -11 -1 -20.5T207.5 6t-14 -11T166 -9q-17 0 -27 4T124.5 5.5t-5.5 16T118 42V174H50q-12 0 -20 9.5T22 215q0 22 8 32t20 10h68V447H50q-12 0 -20 10t-8 32q0 22 8 31.5T50 530h68V673q0 19 10.5 29T166 712q26 0 37 -11t11 -28V530H318V673q0 19 11 29t37 10q26 0 37.5 -11T415 673V530h68q12 0 19.5 -9.5T510 489q0 -22 -7.5 -32T483 447H415V257h67q12 0 20 -10t8 -32q0 -22 -8 -31.5T482 174H415V43q0 -11 -1 -20.5T408.5 6T394 -5T366 -9q-17 0 -27 4T324.5 6T319 22.5T318 42V174ZM214 257H318V447H214V257Z"
></glyph
><glyph unicode="$" horiz-adv-x="464" d="M156 523q0 -22 5 -38.5T178.5 454T212 427t53 -28l28 -13q63 -29 95 -74T420 197V170Q420 100 385 54T289 -6V-69q0 -39 -50 -39q-50 0 -50 39V-7Q126 7 90 53T54 170v22q0 14 11.5 23.5T106 225q29 0 40.5 -9.5T158 192V170q0 -46 21 -70T237 76q37 0 58 24t21 70v19q0 22 -5 38.5T293.5 258T260 285t-53 28l-28 13q-63 29 -95 74T52 515v19q0 69 34 115.5T180 710v63q0 39 50 39q50 0 50 -39V710q60 -14 95 -60T410 534V512q0 -14 -11.5 -23.5T358 479q-29 0 -40.5 9.5T306 512v22q0 42 -19 68t-56 26q-37 0 -56 -26T156 534V523Z"
></glyph
><glyph unicode="%" horiz-adv-x="623" d="M157 358q-54 0 -84.5 32.5T42 474V600q0 51 30.5 83.5T157 716q54 0 84.5 -32.5T272 600V474q0 -51 -30.5 -83.5T157 358ZM157 650q-17 0 -26.5 -11T121 609V465q0 -19 9.5 -30T157 424q17 0 26.5 11t9.5 30V609q0 19 -9.5 30T157 650ZM419 696q6 15 20 15q14 0 28.5 -8.5T482 683q0 -6 -3 -13L204 8Q198 -7 184 -7q-14 0 -28.5 8.5T141 21q0 5 3 13L419 696ZM466 -12q-54 0 -84.5 32.5T351 104V230q0 51 30.5 83.5T466 346q54 0 84.5 -32.5T581 230V104Q581 53 550.5 20.5T466 -12ZM466 280q-17 0 -26.5 -11T430 239V95q0 -19 9.5 -30T466 54q17 0 26.5 11T502 95V239q0 19 -9.5 30T466 280Z"
></glyph
><glyph unicode="&amp;" horiz-adv-x="503" d="M234 -13q-41 0 -74.5 13.5T102.5 37T66 91.5T53 159v60q0 58 21 96t60 52Q91 388 76.5 426T62 515v29q0 36 11.5 67.5t34 54.5T162 702.5T235 716q41 0 73 -13.5T362.5 666t34 -54.5T408 544V519q0 -14 -11.5 -23.5T356 486q-29 0 -40.5 9.5T304 519v31q0 33 -17 55.5T235 628q-35 0 -52 -22.5T166 550V524q0 -29 3.5 -50.5T183 438t27.5 -21.5T256 409H455q29 0 29 -44q0 -44 -29 -44H415V159q0 -36 -13 -67.5T365.5 37T308.5 0.5T234 -13ZM157 153q0 -35 20.5 -56.5T234 75q36 0 56.5 21.5T311 153V321H247q-28 0 -45.5 -7.5T174 292T160.5 256T157 206V153Z"
></glyph
><glyph unicode="&#39;" horiz-adv-x="208" d="M104 416q-26 0 -37 9T56 448V680q0 12 11 22t37 10q26 0 37 -10t11 -22V448q0 -14 -11 -23t-37 -9Z"
></glyph
><glyph unicode="(" horiz-adv-x="277" d="M53 302q0 106 12.5 184.5T100 620t52 88.5T218 759q14 7 28.5 -6T266 716q4 -17 -0.5 -26T250 673Q226 654 207.5 624.5t-31 -74t-19 -106T151 302q0 -81 6.5 -142.5t19 -106t31 -74T250 -69q11 -8 15.5 -17t0.5 -26q-5 -24 -19.5 -37T218 -155q-36 17 -66 50.5T100 -16T65.5 117.5T53 302Z"
></glyph
><glyph unicode=")" horiz-adv-x="277" d="M224 302Q224 196 211.5 117.5T177 -16t-52 -88.5T59 -155q-14 -7 -28.5 6T11 -112q-4 17 0.5 26T27 -69q24 19 42.5 48.5t31 74t19 106T126 302q0 81 -6.5 142.5t-19 106t-31 74T27 673q-11 8 -15.5 17T11 716q5 24 19.5 37T59 759q36 -17 66 -50.5T177 620T211.5 486.5T224 302Z"
></glyph
><glyph unicode="*" horiz-adv-x="452" d="M226 251L174 169l-8 -10q-8 -9 -21 -10.5T112 161Q92 176 89.5 189T94 212l6 9l64 78L69 324l-12 4q-11 4 -17 16.5T42 380q8 24 20 30t23 3l11 -3l90 -36l-5 100v12q0 12 9.5 21.5T226 517q25 0 35 -9.5T271 486V474L264 374l92 36l11 3q11 3 23 -3t20 -30q8 -23 2 -35.5T395 328l-12 -4L287 299l65 -78l6 -9q7 -10 4.5 -23T340 161Q320 147 307 148.5T286 159l-8 10l-52 82Z"
></glyph
><glyph unicode="+" horiz-adv-x="460" d="M420 333q0 -23 -8 -33T392 290H280V163q0 -14 -12 -23t-38 -9q-26 0 -38 9t-12 23V290H68q-12 0 -20 10t-8 33q0 23 8 33t20 10H180V503q0 14 12 23t38 9q26 0 38 -9t12 -23V376H392q12 0 20 -10t8 -33Z"
></glyph
><glyph unicode="," horiz-adv-x="232" d="M62 70q0 23 14 36t40 13q26 0 40 -13T170 70V44Q170 24 165.5 1t-13 -46T131 -90t-29 -39Q91 -141 73 -141q-18 0 -34.5 14T22 -96q0 8 7 19q19 29 26 59t7 67V70Z"
></glyph
><glyph unicode="-" horiz-adv-x="340" d="M300 333q0 -23 -8 -33T272 290H68q-12 0 -20 10t-8 33q0 23 8 33t20 10H272q12 0 20 -10t8 -33Z"
></glyph
><glyph unicode="." horiz-adv-x="232" d="M116 -12Q90 -12 76 1T62 37V70q0 23 14 36t40 13q26 0 40 -13T170 70V37Q170 14 156 1T116 -12Z"
></glyph
><glyph unicode="/" horiz-adv-x="365" d="M86 -102q-6 -19 -27 -19q-18 0 -34.5 9.5T8 -90q0 7 3 16L279 741q6 19 27 19q18 0 34.5 -9.5T357 729q0 -7 -3 -16L86 -102Z"
></glyph
><glyph unicode="0" horiz-adv-x="464" d="M159 154q0 -33 19 -55.5T232 76q35 0 54 22.5T305 154V550q0 33 -19 55.5T232 628q-35 0 -54 -22.5T159 550V154ZM409 160q0 -34 -12.5 -65T361 40T305.5 2T232 -12q-41 0 -73.5 14T103 40T67.5 95T55 160V544q0 34 12.5 65T103 664t55.5 38T232 716q41 0 73.5 -14T361 664t35.5 -55T409 544V160Z"
></glyph
><glyph unicode="1" horiz-adv-x="464" d="M215 603L125 586q-17 -3 -27 -3q-15 0 -24 14t-9 43q0 17 6.5 24.5T89 674l147 26q11 2 22 3t20 1q41 0 41 -35V25Q319 11 307.5 1.5T267 -8q-29 0 -40.5 9.5T215 25V603Z"
></glyph
><glyph unicode="2" horiz-adv-x="464" d="M170 88H382q29 0 29 -44Q411 0 382 0H100Q85 0 75.5 9T66 36v79q0 42 7 74.5t23 58T138 294t64 41q34 17 54.5 32.5T288 401t15 40.5t4 53.5v55q0 33 -17.5 55.5T237 628q-35 0 -52.5 -22.5T167 550V504q0 -14 -11.5 -23.5T115 471q-29 0 -40.5 9.5T63 504v40q0 36 12 67.5T109.5 666T164 702.5T237 716q41 0 73 -13.5T364.5 666T399 611.5T411 544V483q0 -42 -7 -74.5t-23 -58t-42 -47T275 263Q241 246 220.5 230t-32 -34t-15 -40T170 103V88Z"
></glyph
><glyph unicode="3" horiz-adv-x="464" d="M308 203q0 28 -3.5 50T291 289t-27.5 21.5T218 318H181q-29 0 -29 44q0 44 29 44h28q28 0 45.5 7.5T282 435t13.5 35.5T299 521v29q0 33 -17.5 55.5T229 628q-35 0 -52.5 -22.5T159 550V521q0 -14 -11.5 -23.5T107 488q-29 0 -40.5 9.5T55 521v23q0 36 12 67.5T101.5 666T156 702.5T229 716q41 0 73 -13.5T356.5 666T391 611.5T403 544V512q0 -51 -14.5 -89T331 364q39 -14 60 -52t21 -96V172q0 -39 -11 -73T367.5 40.5T310 2T227 -12q-51 0 -92.5 19T65 58Q56 68 56 82q0 9 5 19t13.5 17.5T93 131t20 5q13 0 23 -12q18 -22 40.5 -35T226 76q41 0 61.5 26T308 188v15Z"
></glyph
><glyph unicode="4" horiz-adv-x="464" d="M148 202H273V556Q248 525 226.5 489T188 415Q168 370 158 328T148 250V202ZM377 25Q377 11 365.5 1.5T325 -8q-28 0 -40 9.5T273 25v89H78q-16 0 -25 9.5T44 150v88q0 59 13.5 111.5T95 453q32 69 70 124.5T243 675q17 19 35 24t44 5h20q17 0 26 -9.5T377 668V202h44q13 0 21 -10.5T450 158q0 -23 -8 -33.5T421 114H377V25Z"
></glyph
><glyph unicode="5" horiz-adv-x="464" d="M309 263q0 53 -18.5 80T225 370q-17 0 -33.5 -2.5T159 360q-32 -9 -54 -9q-34 0 -34 34V668q0 18 9.5 27t25.5 9H371q29 0 29 -44q0 -24 -7.5 -34T371 616H175V446q15 5 33.5 8.5T249 458q78 0 121 -48.5T413 280V160q0 -36 -12.5 -67.5T365 38T309.5 1.5T236 -12q-41 0 -74 13.5T106 38T70.5 92.5T58 160v25q0 14 11.5 23.5T110 218q29 0 40.5 -9.5T162 185V154q0 -33 19.5 -55.5T236 76q35 0 54 22.5T309 154V263Z"
></glyph
><glyph unicode="6" horiz-adv-x="464" d="M234 355q-19 0 -39.5 -5T160 336V154q0 -33 19.5 -55.5T234 76q35 0 54.5 22.5T308 154V277q0 34 -19.5 56T234 355ZM244 443q40 0 71 -13.5t52.5 -37t33 -55T412 271V160q0 -34 -12.5 -65T364 40T308 2T234 -12q-41 0 -74 14T104 40T68.5 95T56 160V544q0 36 12 67.5T102.5 666t55 36.5T231 716q41 0 73.5 -13.5t55 -36.5T394 611.5T406 544V523q0 -14 -11.5 -23.5T354 490q-29 0 -40.5 9.5T302 523v27q0 33 -18 55.5T231 628q-35 0 -53 -22.5T160 550V422q17 10 39.5 15.5T244 443Z"
></glyph
><glyph unicode="7" horiz-adv-x="464" d="M259 25Q259 11 247.5 1.5T207 -8q-28 0 -40 9.5T155 25v95q0 34 3.5 63t12 57.5t23 59T231 367q34 56 47.5 100.5T292 563v53H75q-13 0 -21 10t-8 34q0 23 8 33.5T75 704H364q32 0 32 -37V549q0 -28 -3.5 -53.5T380.5 444t-22 -54.5T325 328Q307 298 294.5 272T274 221.5t-11.5 -50T259 118V25Z"
></glyph
><glyph unicode="8" horiz-adv-x="464" d="M232 76q35 0 56 22.5T309 154v88q0 33 -21 55.5T232 320q-35 0 -56 -22.5T155 242V154q0 -33 21 -55.5T232 76ZM232 716q41 0 73.5 -14t55 -38T395 609t12 -65V493q0 -41 -17.5 -73.5T339 367q35 -17 54.5 -52.5T413 230V160q0 -34 -13 -65T363.5 40T306.5 2T232 -12q-41 0 -74.5 14t-57 38T64 95T51 160v70q0 49 19.5 84.5T125 367Q92 387 74.5 419.5T57 493v51q0 34 12 65t34.5 55t55 38T232 716ZM232 408q32 0 52 22.5T304 486v64q0 33 -20 55.5T232 628q-32 0 -52 -22.5T160 550V486q0 -33 20 -55.5T232 408Z"
></glyph
><glyph unicode="9" horiz-adv-x="464" d="M230 349q19 0 39.5 5T304 368V550q0 33 -19.5 55.5T230 628q-35 0 -54.5 -22.5T156 550V427q0 -34 19.5 -56T230 349ZM220 261q-40 0 -71 13.5t-52.5 37t-33 55T52 433V544q0 34 12.5 65T100 664t56 38t74 14q41 0 74 -14t56 -38t35.5 -55T408 544V175q0 -40 -11 -74.5T364 41T307.5 2T227 -12q-52 0 -92.5 20T69 58Q60 68 60 82q0 9 5 19t13.5 17.5T97 131t20 5q14 0 23 -12q17 -22 38.5 -35T226 76q38 0 58 26t20 86v94Q287 272 264.5 266.5T220 261Z"
></glyph
><glyph unicode=":" horiz-adv-x="232" d="M116 -12Q90 -12 76 1T62 37V70q0 23 14 36t40 13q26 0 40 -13T170 70V37Q170 14 156 1T116 -12ZM116 395q-26 0 -40 13T62 444v33q0 23 14 36t40 13q26 0 40 -13t14 -36V444q0 -23 -14 -36T116 395Z"
></glyph
><glyph unicode=";" horiz-adv-x="232" d="M62 70q0 23 14 36t40 13q26 0 40 -13T170 70V44Q170 24 165.5 1t-13 -46T131 -90t-29 -39Q91 -141 73 -141q-18 0 -34.5 14T22 -96q0 8 7 19q19 29 26 59t7 67V70ZM116 395q-26 0 -40 13T62 444v33q0 23 14 36t40 13q26 0 40 -13t14 -36V444q0 -23 -14 -36T116 395Z"
></glyph
><glyph unicode="&lt;" horiz-adv-x="460" d="M80 332q0 10 8 18L297 565q7 7 13 10t15 3q9 0 18.5 -5.5T361 559t13.5 -17.5T380 524q0 -8 -3 -13t-8 -10L201 332L369 163q5 -5 8 -10t3 -13q0 -8 -5.5 -17.5T361 105T343.5 91.5T325 86q-9 0 -15 3T297 99L88 314q-8 8 -8 18Z"
></glyph
><glyph unicode="=" horiz-adv-x="460" d="M420 239q0 -23 -8 -33T392 196H68q-12 0 -20 10t-8 33q0 23 8 33t20 10H392q12 0 20 -10t8 -33ZM420 427q0 -23 -8 -33T392 384H68q-12 0 -20 10t-8 33q0 23 8 33t20 10H392q12 0 20 -10t8 -33Z"
></glyph
><glyph unicode="&gt;" horiz-adv-x="459" d="M380 332q0 -10 -8 -18L163 99Q156 92 150 89T135 86q-9 0 -18.5 5.5T99 105T85.5 122.5T80 140q0 8 3 13t8 10L259 332L91 501q-5 5 -8 10t-3 13q0 8 5.5 17.5T99 559t17.5 13.5T135 578q9 0 15 -3t13 -10L372 350q8 -8 8 -18Z"
></glyph
><glyph unicode="?" horiz-adv-x="416" d="M196 -12q-26 0 -40 13T142 37V70q0 23 14 36t40 13q26 0 40 -13T250 70V37Q250 14 236 1T196 -12ZM378 524q0 -37 -9.5 -65T344 409T312.5 368.5T281 331T256.5 290T247 240V207q0 -14 -11.5 -23.5T195 174q-28 0 -40 10.5T143 207v46q0 36 9.5 62.5T177 363t31.5 39.5t31.5 37T264.5 479t9.5 49v26q0 31 -16.5 52.5T208 628q-33 0 -49.5 -21.5T142 554V525q0 -14 -11.5 -23.5T90 492q-29 0 -40.5 9.5T38 525v21q0 36 11.5 67T83 667t53.5 36T208 716q40 0 71.5 -13T333 667.5t33.5 -53T378 548V524Z"
></glyph
><glyph unicode="@" horiz-adv-x="590" d="M295 -134q-52 0 -96 18.5t-76.5 53T72 22.5T54 136V445q0 64 18 114t50.5 85T199 697.5T295 716q52 0 96 -18.5T467.5 644T518 559T536 445V136Q536 73 518 22.5t-50.5 -85t-76.5 -53T295 -134ZM295 -93q42 0 78 15t62.5 44T477 39t15 103V440q0 58 -15 102.5T435.5 616T373 660t-78 15q-42 0 -78 -15T154.5 616T113 542.5T98 440V142Q98 83 113 39t41.5 -73T217 -78t78 -15ZM161 194q0 48 21.5 78T258 319l67 21q23 7 23 20v33q0 26 -13.5 41T297 449q-24 0 -37.5 -15T246 393V378q0 -11 -9 -19t-33 -8q-23 0 -32 8t-9 19v5q0 63 35 100t99 37q63 0 99 -38t36 -99V199q0 -61 -37.5 -99T296 62q-31 0 -56 10t-42.5 28t-27 42T161 194ZM285 250Q244 237 244 193v-2q0 -26 14 -41.5T296 134q24 0 38 15.5T348 191v83q-4 -5 -17 -10L285 250Z"
></glyph
><glyph unicode="A" d="M250 716q43 0 78 -14t59.5 -39.5t38 -60.5T439 524V25Q439 11 427.5 1.5T387 -8q-29 0 -40.5 9.5T335 25V255H165V25Q165 11 153.5 1.5T113 -8Q84 -8 72.5 1.5T61 25V524q0 43 13.5 78t38 60.5T172 702t78 14ZM165 343H335V534q0 42 -22.5 68T250 628q-40 0 -62.5 -26T165 534V343Z"
></glyph
><glyph unicode="B" horiz-adv-x="476" d="M420 496q0 -38 -14.5 -72.5T359 369q71 -36 71 -138V176q0 -38 -10.5 -70.5t-32 -56T333.5 13T258 0H92Q61 0 61 36V668q0 36 31 36H248q43 0 75.5 -13t54 -36.5t32 -56T420 528V496ZM252 88q39 0 56.5 25T326 176v56q0 38 -17.5 63T252 320H165V88h87ZM165 408h77q39 0 56.5 25T316 496v32q0 38 -17.5 63T242 616H165V408Z"
></glyph
><glyph unicode="C" horiz-adv-x="488" d="M56 524q0 43 13.5 78t38 60.5T167 702t78 14q43 0 78 -14t59.5 -39.5t38 -60.5T434 524V480q0 -14 -11.5 -23.5T382 447q-29 0 -40.5 9.5T330 480v54q0 42 -23 68t-62 26q-40 0 -62.5 -26T160 534V170q0 -42 22.5 -68T245 76q39 0 62 26t23 68v54q0 14 11.5 23.5T382 257q29 0 40.5 -9.5T434 224V180q0 -43 -13.5 -78t-38 -60.5T323 2T245 -12q-43 0 -78 14T107.5 41.5T69.5 102T56 180V524Z"
></glyph
><glyph unicode="D" horiz-adv-x="483" d="M165 616V88h73q40 0 62.5 26T323 182V522q0 42 -22.5 68T238 616H165ZM238 704q43 0 78 -14t59.5 -39.5t38 -60.5T427 512V192q0 -43 -13.5 -78t-38 -60.5T316 14T238 0H92Q61 0 61 36V668q0 36 31 36H238Z"
></glyph
><glyph unicode="E" horiz-adv-x="413" d="M352 88q13 0 21 -10.5T381 44q0 -23 -8 -33.5T352 0H92Q61 0 61 36V668q0 36 31 36H349q29 0 29 -44q0 -44 -29 -44H165V405H327q13 0 21 -10.5T356 361q0 -23 -8 -33.5T327 317H165V88H352Z"
></glyph
><glyph unicode="F" horiz-adv-x="405" d="M165 25Q165 11 153.5 1.5T113 -8Q84 -8 72.5 1.5T61 25V668q0 36 31 36H354q29 0 29 -44q0 -44 -29 -44H165V398H327q13 0 21 -10.5T356 354q0 -23 -8 -33.5T327 310H165V25Z"
></glyph
><glyph unicode="G" horiz-adv-x="490" d="M330 283H271q-29 0 -29 44q0 44 29 44H401q33 0 33 -36V180q0 -43 -13.5 -78t-38 -60.5T323 2T245 -12q-43 0 -78 14T107.5 41.5T69.5 102T56 180V524q0 43 13.5 78t38 60.5T167 702t78 14q43 0 78 -14t59.5 -39.5t38 -60.5T434 524V480q0 -14 -11.5 -23.5T382 447q-29 0 -40.5 9.5T330 480v54q0 42 -23 68t-62 26q-40 0 -62.5 -26T160 534V170q0 -42 22.5 -68T245 76q39 0 62 26t23 68V283Z"
></glyph
><glyph unicode="H" horiz-adv-x="487" d="M426 25Q426 11 414.5 1.5T374 -8q-29 0 -40.5 9.5T322 25V313H165V25Q165 11 153.5 1.5T113 -8Q84 -8 72.5 1.5T61 25V679q0 14 11.5 23.5T113 712q29 0 40.5 -9.5T165 679V401H322V679q0 14 11.5 23.5T374 712q29 0 40.5 -9.5T426 679V25Z"
></glyph
><glyph unicode="I" horiz-adv-x="244" d="M174 25Q174 11 162.5 1.5T122 -8Q93 -8 81.5 1.5T70 25V679q0 14 11.5 23.5T122 712q29 0 40.5 -9.5T174 679V25Z"
></glyph
><glyph unicode="J" horiz-adv-x="452" d="M213 -12q-44 0 -77 14T80.5 40.5T46.5 98T35 169v30q0 14 11.5 23.5T87 232q28 0 40 -9.5T139 199V162q0 -42 20.5 -64T213 76q33 0 53.5 22T287 162V679q0 14 11.5 23.5T339 712q29 0 40.5 -9.5T391 679V169q0 -38 -11.5 -71t-34 -57.5T289.5 2T213 -12Z"
></glyph
><glyph unicode="K" horiz-adv-x="477" d="M165 25Q165 11 153.5 1.5T113 -8Q84 -8 72.5 1.5T61 25V679q0 14 11.5 23.5T113 712q29 0 40.5 -9.5T165 679V374q6 10 29 27l29 22q24 18 40.5 37.5T290 503t14.5 51.5T309 619v60q0 14 11.5 23.5T361 712q28 0 40 -9.5T413 679V618q0 -41 -4.5 -74t-15 -61.5t-27 -53T325 381q30 -32 50 -63t32 -65t16.5 -74T428 90V25Q428 11 416 1.5T376 -8q-29 0 -40.5 9.5T324 25V54q0 43 -3 79.5t-11 68T287 261t-40 54L190 271q-11 -8 -18 -17.5T165 233V25Z"
></glyph
><glyph unicode="L" horiz-adv-x="401" d="M94 0Q61 0 61 36V679q0 14 11.5 23.5T113 712q29 0 40.5 -9.5T165 679V88H360q29 0 29 -44Q389 0 360 0H94Z"
></glyph
><glyph unicode="M" horiz-adv-x="726" d="M363 -8q-29 0 -40.5 9.5T311 25V534q0 42 -18 68t-55 26q-37 0 -55 -26T165 534V25Q165 11 153.5 1.5T113 -8Q84 -8 72.5 1.5T61 25V524q0 43 12 78t34 60.5T161 702t72 14q38 0 72.5 -14.5T363 658q23 29 57.5 43.5T493 716q40 0 72 -14t54 -39.5T653 602t12 -78V25Q665 11 653.5 1.5T613 -8q-29 0 -40.5 9.5T561 25V534q0 42 -18 68t-55 26q-37 0 -55 -26T415 534V25Q415 11 403.5 1.5T363 -8Z"
></glyph
><glyph unicode="N" d="M335 534q0 42 -22.5 68T250 628q-40 0 -62.5 -26T165 534V25Q165 11 153.5 1.5T113 -8Q84 -8 72.5 1.5T61 25V524q0 43 13.5 78t38 60.5T172 702t78 14q43 0 78 -14t59.5 -39.5t38 -60.5T439 524V25Q439 11 427.5 1.5T387 -8q-29 0 -40.5 9.5T335 25V534Z"
></glyph
><glyph unicode="O" horiz-adv-x="490" d="M56 524q0 43 13.5 78t38 60.5T167 702t78 14q43 0 78 -14t59.5 -39.5t38 -60.5T434 524V180q0 -43 -13.5 -78t-38 -60.5T323 2T245 -12q-43 0 -78 14T107.5 41.5T69.5 102T56 180V524ZM160 170q0 -42 22.5 -68T245 76q39 0 62 26t23 68V534q0 42 -23 68t-62 26q-40 0 -62.5 -26T160 534V170Z"
></glyph
><glyph unicode="P" horiz-adv-x="449" d="M165 267V25Q165 11 153.5 1.5T113 -8Q84 -8 72.5 1.5T61 25V668q0 36 31 36H233q85 0 132.5 -51T413 518V453q0 -84 -47.5 -135T233 267H165ZM309 518q0 48 -20 73t-59 25H165V355h65q39 0 59 25t20 73v65Z"
></glyph
><glyph unicode="Q" horiz-adv-x="490" d="M56 524q0 43 13.5 78t38 60.5T167 702t78 14q43 0 78 -14t59.5 -39.5t38 -60.5T434 524V180q0 -48 -18.5 -89.5T360 26Q397 9 415.5 -25.5T434 -106v-39q0 -14 -11.5 -23.5T382 -178q-29 0 -40.5 9.5T330 -145v39q0 42 -23 68t-62 26q-43 0 -78 14T107.5 41.5T69.5 102T56 180V524ZM249 76q38 2 59.5 27T330 170V534q0 42 -23 68t-62 26q-40 0 -62.5 -26T160 534V170q0 -42 22.5 -68T245 76h4Z"
></glyph
><glyph unicode="R" horiz-adv-x="474" d="M419 25Q419 11 407.5 1.5T367 -8q-29 0 -40.5 9.5T315 25V179q0 49 -20.5 77.5T229 285H165V25Q165 11 153.5 1.5T113 -8Q84 -8 72.5 1.5T61 25V668q0 36 31 36H236q85 0 132.5 -51T416 518V461q0 -42 -18 -78.5T344 325q36 -19 55.5 -54.5T419 176V25ZM165 373h73q39 0 56.5 25T312 461v57q0 48 -20 73t-59 25H165V373Z"
></glyph
><glyph unicode="S" horiz-adv-x="464" d="M156 523q0 -22 5 -38.5T178.5 454T212 427t53 -28l28 -13q63 -29 95 -74T420 197V170Q420 86 370.5 37T237 -12q-84 0 -133.5 49T54 170v22q0 14 11.5 23.5T106 225q29 0 40.5 -9.5T158 192V170q0 -46 21 -70T237 76q37 0 58 24t21 70v19q0 22 -5 38.5T293.5 258T260 285t-53 28l-28 13q-63 29 -95 74T52 515v19q0 84 49 133t130 49q81 0 130 -49T410 534V512q0 -14 -11.5 -23.5T358 479q-29 0 -40.5 9.5T306 512v22q0 42 -19 68t-56 26q-37 0 -56 -26T156 534V523Z"
></glyph
><glyph unicode="T" horiz-adv-x="434" d="M387 704q29 0 29 -44q0 -44 -29 -44H269V25Q269 11 257.5 1.5T217 -8q-29 0 -40.5 9.5T165 25V616H47q-29 0 -29 44q0 44 29 44H387Z"
></glyph
><glyph unicode="U" d="M335 679q0 14 11.5 23.5T387 712q29 0 40.5 -9.5T439 679V180q0 -43 -13.5 -78t-38 -60.5T328 2T250 -12q-43 0 -78 14T112.5 41.5T74.5 102T61 180V679q0 14 11.5 23.5T113 712q29 0 40.5 -9.5T165 679V170q0 -42 22.5 -68T250 76q40 0 62.5 26T335 170V679Z"
></glyph
><glyph unicode="V" horiz-adv-x="492" d="M246 -8q-17 0 -32.5 9T180 33Q128 97 95 181Q78 224 67.5 272.5T57 374V679q0 14 11.5 23.5T109 712q29 0 40.5 -9.5T161 679V397q0 -42 5.5 -82.5T184 237q22 -70 62 -130q40 60 62 130q12 37 17.5 77.5T331 397V679q0 14 11.5 23.5T383 712q29 0 40.5 -9.5T435 679V374q0 -53 -10.5 -101.5T397 181Q364 97 312 33Q294 10 278.5 1T246 -8Z"
></glyph
><glyph unicode="W" horiz-adv-x="726" d="M363 712q29 0 40.5 -9.5T415 679V170q0 -42 18 -68T488 76q37 0 55 26t18 68V679q0 14 11.5 23.5T613 712q29 0 40.5 -9.5T665 679V180q0 -43 -12 -78T619 41.5T565 2T493 -12q-38 0 -72.5 14.5T363 46Q340 17 305.5 2.5T233 -12q-40 0 -72 14T107 41.5T73 102T61 180V679q0 14 11.5 23.5T113 712q29 0 40.5 -9.5T165 679V170q0 -42 18 -68T238 76q37 0 55 26t18 68V679q0 14 11.5 23.5T363 712Z"
></glyph
><glyph unicode="X" horiz-adv-x="474" d="M237 285Q211 258 195 235T170 190.5T158 147t-3 -46V25Q155 11 143.5 1.5T103 -8Q74 -8 62.5 1.5T51 25V91q0 37 5 69.5T74 224t36 63t59 68q-35 36 -58 67T74.5 483T56 544t-5 67v68q0 14 11.5 23.5T103 712q29 0 40.5 -9.5T155 679V607q0 -26 3.5 -48t13 -43T197 473t40 -47q24 25 40 47t25.5 43t13 43t3.5 48v72q0 14 11.5 23.5T371 712q29 0 40.5 -9.5T423 679V611q0 -36 -5 -67T399.5 483T363 422T305 355q36 -36 59 -68t36 -63t18 -63.5T423 91V25Q423 11 411.5 1.5T371 -8q-29 0 -40.5 9.5T319 25v76q0 24 -3 46t-12 43.5T279 235t-42 50Z"
></glyph
><glyph unicode="Y" horiz-adv-x="490" d="M297 25Q297 11 285.5 1.5T245 -8q-29 0 -40.5 9.5T193 25V237Q127 252 90.5 302T54 424V679q0 14 11.5 23.5T106 712q29 0 40.5 -9.5T158 679V414q0 -42 22.5 -68T245 320q42 0 64.5 26T332 414V679q0 14 11.5 23.5T384 712q29 0 40.5 -9.5T436 679V424q0 -72 -37 -122T297 237V25Z"
></glyph
><glyph unicode="Z" horiz-adv-x="439" d="M373 88q29 0 29 -44Q402 0 373 0H80Q48 0 48 36V85q0 39 5 72.5t18.5 67T109 294t62 81q35 41 56.5 71.5T261 501t16 44.5t4 41.5v29H79q-29 0 -29 44q0 44 29 44H354q31 0 31 -36V619q0 -39 -5 -72.5t-18.5 -67T324 410T262 329Q227 288 205.5 257.5T172 203T156 158.5T152 117V88H373Z"
></glyph
><glyph unicode="[" horiz-adv-x="288" d="M73 727q0 16 10 25.5t30 9.5H249q13 0 21 -10t8 -34q0 -24 -8 -34T249 674H172V-70h77q13 0 21 -10t8 -34q0 -24 -8 -34t-21 -10H113q-20 0 -30 9.5T73 -123V727Z"
></glyph
><glyph unicode="\" horiz-adv-x="365" d="M11 713q-3 9 -3 16q0 12 16.5 21.5T59 760q21 0 27 -19L354 -74q3 -9 3 -16q0 -12 -16.5 -21.5T306 -121q-21 0 -27 19L11 713Z"
></glyph
><glyph unicode="]" horiz-adv-x="288" d="M215 -123q0 -16 -10 -25.5T175 -158H39q-13 0 -21 10t-8 34q0 24 8 34t21 10h77V674H39q-13 0 -21 10t-8 34q0 24 8 34t21 10H175q20 0 30 -9.5T215 727V-123Z"
></glyph
><glyph unicode="^" horiz-adv-x="388" d="M194 716q14 0 21.5 -5T230 694L362 460q4 -8 4 -15q0 -14 -17.5 -26.5T312 406q-14 0 -22 14L194 594L98 420Q90 406 76 406q-19 0 -36.5 12.5T22 445q0 7 4 15L158 694q7 12 14.5 17t21.5 5Z"
></glyph
><glyph unicode="_" horiz-adv-x="410" d="M410 -136q0 -15 -6.5 -22T387 -165H22q-22 0 -22 29q0 29 22 29H387q10 0 16.5 -7t6.5 -22Z"
></glyph
><glyph unicode="`" horiz-adv-x="278" d="M204 637q7 -9 7 -18q0 -12 -13.5 -23T170 585q-10 0 -18 10L74 691q-7 9 -7 18q0 12 13.5 23T108 743q10 0 18 -10l78 -96Z"
></glyph
><glyph unicode="a" horiz-adv-x="408" d="M45 143q0 57 25.5 91.5T159 289l79 25q26 8 27 23v40q0 30 -15.5 47.5T205 442q-29 0 -44.5 -17.5T145 377V359q0 -14 -10.5 -23T96 327q-28 0 -38.5 9T47 359v6q0 74 41.5 117.5T205 526q74 0 116 -44.5T363 365V149q0 -36 -11.5 -65.5T319 33T269 0T204 -12q-36 0 -65.5 12T88 33T56 82T45 143ZM191 209Q143 194 143 142v-2q0 -30 16 -49T204 72q29 0 45 19t16 49v98q-4 -7 -20 -12L191 209Z"
></glyph
><glyph unicode="b" horiz-adv-x="415" d="M370 149q0 -36 -11.5 -65.5T326 33T275.5 0T210 -12q-36 0 -65.5 12T94 33T61.5 83.5T50 149V706q0 14 10.5 23T99 738q28 0 38.5 -9T148 706V502q13 11 33 17.5t39 6.5q73 0 111.5 -44.5T370 365V149ZM272 374q0 30 -16.5 49T210 442q-27 0 -44.5 -17T148 380V140q0 -30 16.5 -49T210 72q29 0 45.5 19T272 140V374Z"
></glyph
><glyph unicode="c" horiz-adv-x="410" d="M45 365q0 36 11.5 65.5T89 481t50.5 33T205 526q75 0 117.5 -44.5T365 365V346q0 -14 -10.5 -23T316 314q-28 0 -38.5 9T267 346v28q0 30 -16.5 49T205 442q-29 0 -45.5 -19T143 374V140q0 -30 16.5 -49T205 72q29 0 45.5 19T267 140v28q0 14 10.5 23t38.5 9q28 0 38.5 -9T365 168V149Q365 77 322.5 32.5T205 -12q-36 0 -65.5 12T89 33T56.5 83.5T45 149V365Z"
></glyph
><glyph unicode="d" horiz-adv-x="415" d="M45 365q0 72 38.5 116.5T195 526q19 0 39 -6.5T267 502V706q0 14 10.5 23t38.5 9q28 0 38.5 -9T365 706V149q0 -36 -11.5 -65.5T321 33T270.5 0T205 -12q-36 0 -65.5 12T89 33T56.5 83.5T45 149V365ZM143 140q0 -30 16.5 -49T205 72q29 0 45.5 19T267 140V380q0 28 -17.5 45T205 442q-29 0 -45.5 -19T143 374V140Z"
></glyph
><glyph unicode="e" horiz-adv-x="408" d="M363 371q0 -57 -25.5 -91.5T249 225L170 200q-26 -8 -27 -23V137q0 -30 15.5 -47.5T203 72q29 0 44.5 17.5T263 137v18q0 14 10.5 23t38.5 9q28 0 38.5 -9T361 155v-6Q361 75 319.5 31.5T203 -12Q129 -12 87 32.5T45 149V365q0 36 11.5 65.5T89 481t50 33t65 12q36 0 65.5 -12T320 481t32 -49t11 -61ZM217 305q48 15 48 67v2q0 30 -16 49t-45 19q-29 0 -45 -19T143 374V276q4 7 20 12l54 17Z"
></glyph
><glyph unicode="f" horiz-adv-x="343" d="M99 514v84q0 66 37.5 103T235 738q34 0 62 -10.5T340 700q8 -10 8 -20q0 -18 -14.5 -33T305 632q-13 0 -27 11q-8 6 -17 9.5T241 656q-20 0 -32 -13T197 602V514h93q11 0 19.5 -9.5T318 472q0 -23 -8.5 -32.5T290 430H197V24Q197 10 186.5 1T148 -8q-28 0 -38.5 9T99 24V430H44q-11 0 -19.5 9.5T16 472q0 23 8.5 32.5T44 514H99Z"
></glyph
><glyph unicode="g" horiz-adv-x="415" d="M143 140q0 -30 16.5 -49T205 72q27 0 44.5 17T267 134V374q0 30 -16.5 49T205 442q-29 0 -45.5 -19T143 374V140ZM365 -41q0 -89 -43.5 -136T197 -224q-38 0 -72.5 12.5T68 -177q-10 10 -10 21q0 10 4.5 20T74 -118.5t16 12t17 4.5q14 0 24 -10q14 -13 29.5 -20.5T193 -140q35 0 54.5 22.5T267 -47V12Q254 1 234 -5.5T195 -12Q122 -12 83.5 32.5T45 149V365q0 36 11.5 65.5T89 481t50.5 33T205 526q36 0 65.5 -12T321 481t32.5 -50.5T365 365V-41Z"
></glyph
><glyph unicode="h" horiz-adv-x="420" d="M148 24Q148 10 137.5 1T99 -8Q71 -8 60.5 1T50 24V706q0 14 10.5 23T99 738q28 0 38.5 -9T148 706V502q13 11 33 17.5t39 6.5q73 0 111.5 -44.5T370 365V24Q370 10 359.5 1T321 -8q-28 0 -38.5 9T272 24V374q0 30 -16.5 49T210 442q-27 0 -43.5 -17T148 380V24Z"
></glyph
><glyph unicode="i" horiz-adv-x="216" d="M157 24Q157 10 146.5 1T108 -8Q80 -8 69.5 1T59 24V490q0 14 10.5 23t38.5 9q28 0 38.5 -9T157 490V24ZM58 670q0 52 50 52q50 0 50 -52V652q0 -52 -50 -52q-50 0 -50 52v18Z"
></glyph
><glyph unicode="j" horiz-adv-x="216" d="M60 490q0 14 10.5 23t38.5 9q28 0 38.5 -9T158 490V8q0 -85 -27 -138.5T47 -217q-8 -5 -14 -6t-12 -1q-17 0 -32 17.5T-26 -168q0 19 18 30q34 20 51 55T60 5V490ZM59 670q0 52 50 52q50 0 50 -52V652q0 -52 -50 -52q-50 0 -50 52v18Z"
></glyph
><glyph unicode="k" horiz-adv-x="405" d="M258 490q0 14 10.5 23t38.5 9q28 0 38.5 -9T356 490V464q0 -60 -16 -101.5T283 287q24 -22 40 -44t26 -49t14.5 -61T368 54V24Q368 10 357.5 1T319 -8q-28 0 -38.5 9T270 24V68q0 58 -14.5 94T207 230L170 203Q149 188 148 174V24Q148 10 137.5 1T99 -8Q71 -8 60.5 1T50 24V706q0 14 10.5 23T99 738q28 0 38.5 -9T148 706V297q2 5 6.5 9T170 318l33 25q27 21 41 48.5T258 457v33Z"
></glyph
><glyph unicode="l" horiz-adv-x="257" d="M150 221q0 -53 17 -88T218 78Q236 67 236 48Q236 27 221 9.5T189 -8q-6 0 -12 1t-14 6Q106 32 79 85.5T52 224V706q0 14 10.5 23t38.5 9q28 0 38.5 -9T150 706V221Z"
></glyph
><glyph unicode="m" horiz-adv-x="614" d="M307 -8q-28 0 -38.5 9T258 24V374q0 30 -13 49t-42 19q-29 0 -42 -19T148 374V24Q148 10 137.5 1T99 -8Q71 -8 60.5 1T50 24V365q0 72 39 116.5T198 526q33 0 61.5 -13T307 476q19 24 47.5 37T416 526q70 0 109 -44.5T564 365V24Q564 10 553.5 1T515 -8q-28 0 -38.5 9T466 24V374q0 30 -13 49t-42 19q-29 0 -42 -19T356 374V24Q356 10 345.5 1T307 -8Z"
></glyph
><glyph unicode="n" horiz-adv-x="420" d="M210 526q36 0 65.5 -12T326 481t32.5 -50.5T370 365V24Q370 10 359.5 1T321 -8q-28 0 -38.5 9T272 24V374q0 30 -16.5 49T210 442q-29 0 -45.5 -19T148 374V24Q148 10 137.5 1T99 -8Q71 -8 60.5 1T50 24V365q0 36 11.5 65.5T94 481t50.5 33T210 526Z"
></glyph
><glyph unicode="o" horiz-adv-x="410" d="M267 374q0 30 -16.5 49T205 442q-29 0 -45.5 -19T143 374V140q0 -30 16.5 -49T205 72q29 0 45.5 19T267 140V374ZM365 149q0 -36 -11.5 -65.5T321 33T270.5 0T205 -12q-36 0 -65.5 12T89 33T56.5 83.5T45 149V365q0 36 11.5 65.5T89 481t50.5 33T205 526q36 0 65.5 -12T321 481t32.5 -50.5T365 365V149Z"
></glyph
><glyph unicode="p" horiz-adv-x="415" d="M370 149Q370 77 331.5 32.5T220 -12q-19 0 -39 6.5T148 12V-188q0 -14 -10.5 -23T99 -220q-28 0 -38.5 9T50 -188V365q0 36 11.5 65.5T94 481t50.5 33T210 526q36 0 65.5 -12T326 481t32.5 -50.5T370 365V149ZM272 374q0 30 -16.5 49T210 442q-29 0 -45.5 -19T148 374V134q0 -28 17.5 -45T210 72q29 0 45.5 19T272 140V374Z"
></glyph
><glyph unicode="q" horiz-adv-x="415" d="M45 365q0 36 11.5 65.5T89 481t50.5 33T205 526q36 0 65.5 -12T321 481t32.5 -50.5T365 365V-188q0 -14 -10.5 -23T316 -220q-28 0 -38.5 9T267 -188V12Q254 1 234 -5.5T195 -12Q122 -12 83.5 32.5T45 149V365ZM143 140q0 -30 16.5 -49T205 72q27 0 44.5 17T267 134V374q0 30 -16.5 49T205 442q-29 0 -45.5 -19T143 374V140Z"
></glyph
><glyph unicode="r" horiz-adv-x="359" d="M50 367q0 74 44.5 116.5T211 526q41 0 74 -14t54 -40q4 -5 6.5 -11T348 449q0 -18 -17 -33Q314 401 297 401q-14 0 -22 10q-25 31 -61 31q-28 0 -47 -19T148 369V24Q148 10 137.5 1T99 -8Q71 -8 60.5 1T50 24V367Z"
></glyph
><glyph unicode="s" horiz-adv-x="390" d="M142 389q0 -17 3.5 -29.5t13.5 -23T186.5 316T231 295q63 -26 93 -63t30 -91V130Q354 95 341.5 68.5T308 24T258.5 -3T199 -12Q129 -12 86 25T43 125v18q0 14 10.5 23T92 175q28 0 38.5 -9T141 143V131q0 -29 15 -44.5T198 71q27 0 42 15.5T255 127q0 19 -3.5 33T238 185t-27.5 20.5T166 226q-61 24 -92 62T43 380q0 36 11.5 63T86 488.5t48 28t60 9.5q75 0 115 -39T349 380v-9q0 -14 -10.5 -23T300 339q-28 0 -38.5 9T251 371v12q0 29 -14 44.5T196 443q-27 0 -40.5 -14.5T142 389Z"
></glyph
><glyph unicode="t" horiz-adv-x="363" d="M197 146q0 -38 10.5 -56.5T246 71q17 0 31.5 10.5T303 92q7 0 14.5 -4.5T331 76t9.5 -15.5T344 44Q344 31 334 21T308.5 3.5T274.5 -8T239 -12q-73 0 -106.5 41.5T99 146V430H44q-11 0 -19.5 9.5T16 472q0 23 8.5 32.5T44 514H99V646q0 14 10.5 23t38.5 9q28 0 38.5 -9T197 646V514H302q11 0 19.5 -9.5T330 472q0 -23 -8.5 -32.5T302 430H197V146Z"
></glyph
><glyph unicode="u" horiz-adv-x="420" d="M210 -12q-36 0 -65.5 12T94 33T61.5 83.5T50 149V490q0 14 10.5 23T99 522q28 0 38.5 -9T148 490V139q0 -30 16.5 -49T210 71q29 0 45.5 19T272 139V490q0 14 10.5 23t38.5 9q28 0 38.5 -9T370 490V149q0 -36 -11.5 -65.5T326 33T275.5 0T210 -12Z"
></glyph
><glyph unicode="v" horiz-adv-x="422" d="M211 -8q-11 0 -21 5T167 15Q146 37 124.5 67.5T87 134Q48 221 48 323V490q0 14 10.5 23T97 522q28 0 38.5 -9T146 490V327q0 -37 5 -70t15 -65q8 -26 19.5 -50.5T211 97q14 20 25.5 44.5T256 192q10 32 15 65t5 70V490q0 14 10.5 23t38.5 9q28 0 38.5 -9T374 490V323Q374 221 335 134Q319 98 297.5 67.5T255 15Q242 2 232 -3T211 -8Z"
></glyph
><glyph unicode="w" horiz-adv-x="614" d="M307 522q28 0 38.5 -9T356 490V139q0 -30 13 -49T411 71q29 0 42 19t13 49V490q0 14 10.5 23t38.5 9q28 0 38.5 -9T564 490V149Q564 77 525 32.5T416 -12q-33 0 -61.5 13T307 38Q288 14 259.5 1T198 -12Q128 -12 89 32.5T50 149V490q0 14 10.5 23T99 522q28 0 38.5 -9T148 490V139q0 -30 13 -49T203 71q29 0 42 19t13 49V490q0 14 10.5 23t38.5 9Z"
></glyph
><glyph unicode="x" horiz-adv-x="414" d="M207 204Q186 186 172.5 170.5T152 139t-9.5 -33T140 68V24Q140 10 129.5 1T91 -8Q63 -8 52.5 1T42 24V71q0 27 4.5 51.5t16 47t30 44.5T139 260Q89 304 67 347.5T45 443v47q0 14 10.5 23T94 522q28 0 38.5 -9T143 490V450q0 -38 12.5 -69.5T207 314q39 35 51.5 66.5T271 450v40q0 14 10.5 23t38.5 9q28 0 38.5 -9T369 490V443q0 -52 -22 -95.5T275 260q28 -24 46.5 -46T351 169.5t16 -47T372 71V24Q372 10 361.5 1T323 -8q-28 0 -38.5 9T274 24V68q0 21 -2.5 38T262 139t-20.5 31.5T207 204Z"
></glyph
><glyph unicode="y" horiz-adv-x="420" d="M370 -41q0 -89 -43.5 -136T202 -224q-38 0 -72.5 12.5T73 -177q-10 10 -10 21q0 10 4.5 20T79 -118.5t16 12t17 4.5q14 0 24 -10q14 -13 29.5 -20.5T198 -140q35 0 54.5 22.5T272 -47V12Q259 1 239 -5.5T200 -12Q127 -12 88.5 32.5T50 149V490q0 14 10.5 23T99 522q28 0 38.5 -9T148 490V140q0 -30 16.5 -49T210 72q27 0 44.5 17T272 134V490q0 14 10.5 23t38.5 9q28 0 38.5 -9T370 490V-41Z"
></glyph
><glyph unicode="z" horiz-adv-x="365" d="M137 84H309q11 0 19.5 -9.5T337 42Q337 19 328.5 9.5T309 0H66Q38 0 38 35V82q0 26 3.5 49T55 176t27 44.5T126 270q30 29 49 50.5t30.5 39T221 392t4 32v6H67q-11 0 -19.5 9.5T39 472q0 23 8.5 32.5T67 514H296q28 0 28 -35V432q0 -26 -3.5 -49T307 338T280 293.5T236 244Q206 215 187 193.5t-30.5 -39T141 121.5T137 90V84Z"
></glyph
><glyph unicode="{" horiz-adv-x="320" d="M34 302q0 21 7 31t21 15q20 8 29.5 29t9.5 67V555q0 103 44.5 155T265 762h18q12 0 20.5 -10T312 718q0 -23 -8.5 -32.5T283 676h-3q-39 0 -60 -28.5T199 551V460q0 -68 -14 -104.5T137 302q34 -17 48 -53.5T199 144V53q0 -68 21 -96.5T280 -72h3q12 0 20.5 -9.5T312 -114q0 -24 -8.5 -34T283 -158H265q-75 0 -119.5 52T101 49V160q0 46 -9.5 67T62 256q-14 5 -21 15t-7 31Z"
></glyph
><glyph unicode="|" horiz-adv-x="244" d="M122 -212q-26 0 -36.5 9T75 -180V749q0 14 10.5 23t36.5 9q26 0 36.5 -9T169 749V-180q0 -14 -10.5 -23T122 -212Z"
></glyph
><glyph unicode="}" horiz-adv-x="320" d="M286 302q0 -21 -7 -31T258 256q-20 -8 -29.5 -29T219 160V49q0 -103 -44.5 -155T55 -158H37q-12 0 -20.5 10T8 -114q0 23 8.5 32.5T37 -72h3q39 0 60 28.5T121 53v91q0 68 14 104.5T183 302q-34 17 -48 53.5T121 460v91q0 68 -21 96.5T40 676H37q-12 0 -20.5 9.5T8 718q0 24 8.5 34T37 762H55q75 0 119.5 -52T219 555V444q0 -46 9.5 -67T258 348q14 -5 21 -15t7 -31Z"
></glyph
><glyph unicode="~" horiz-adv-x="460" d="M307 326q19 0 19 36v7q0 12 10.5 21t39.5 9q29 0 39.5 -9T426 369V356q0 -55 -28.5 -85.5T319 240q-38 0 -66.5 16.5T201 300q-17 20 -27 28.5T153 337q-19 0 -19 -36v-7q0 -12 -10.5 -21T84 264q-29 0 -39.5 9T34 294v13q0 55 28.5 85.5T141 423q38 0 66.5 -16.5T259 363q17 -20 27 -28.5T307 326Z"
></glyph
><glyph unicode="&#xa0;" horiz-adv-x="198" d=""
></glyph
><glyph unicode="&#xa1;" horiz-adv-x="224" d="M112 340q23 0 32.5 -9T154 310q3 -115 5.5 -227.5T164 -145v-19q0 -14 -11.5 -24T112 -198q-29 0 -40.5 10T60 -164v19q2 115 4.5 227.5T70 310q0 12 9.5 21t32.5 9ZM112 526q26 0 40 -13t14 -36V444q0 -23 -14 -36T112 395q-26 0 -40 13T58 444v33q0 23 14 36t40 13Z"
></glyph
><glyph unicode="&#xa2;" horiz-adv-x="410" d="M45 365q0 59 30.5 99.5T157 519v71q0 13 10.5 22.5T204 622q26 0 36.5 -9.5T251 590V520q54 -13 84 -54T365 365V346q0 -14 -10.5 -23T316 314q-28 0 -38.5 9T267 346v28q0 30 -16.5 49T205 442q-29 0 -45.5 -19T143 374V140q0 -30 16.5 -49T205 72q29 0 45.5 19T267 140v28q0 14 10.5 23t38.5 9q28 0 38.5 -9T365 168V149Q365 89 335 48T251 -6V-76q0 -13 -10.5 -22.5T204 -108q-26 0 -36.5 9.5T157 -76V-6Q105 8 75 49T45 149V365Z"
></glyph
><glyph unicode="&#xa3;" horiz-adv-x="436" d="M44 307q-11 0 -18.5 7.5T18 342q0 20 7.5 27.5T44 377H90V558q0 72 39.5 115T243 716q74 0 113.5 -40.5T396 564V553q0 -14 -12 -23.5T344 520q-28 0 -40 9.5T292 553v15q0 29 -13 44.5T243 628q-23 0 -36 -15.5T194 568V377H313q11 0 18 -7.5T338 342q0 -20 -7 -27.5T313 307H194V88H379q13 0 21 -10.5T408 44Q408 0 379 0H48Q34 0 26.5 10T19 44q0 44 29 44H90V307H44Z"
></glyph
><glyph unicode="&#xa4;" horiz-adv-x="460" d="M374 337q0 -39 -19 -68l43 -43q8 -8 7.5 -20T390 179q-28 -28 -46 -8l-44 44q-15 -8 -33.5 -12.5T230 198q-18 0 -36.5 4.5T160 215L116 171Q98 151 70 179Q55 194 54.5 206T62 226l43 43Q86 298 86 337q0 39 19 68L62 448q-8 8 -7.5 20T70 495q28 28 46 8l44 -44q15 8 33.5 12.5T230 476q18 0 36.5 -4.5T300 459l44 44q18 20 46 -8q15 -15 15.5 -27T398 448L355 405q19 -29 19 -68ZM166 337q0 -30 18 -48.5T230 270q28 0 46 18.5T294 337q0 30 -18 48.5T230 404q-28 0 -46 -18.5T166 337Z"
></glyph
><glyph unicode="&#xa5;" horiz-adv-x="490" d="M380 253q11 0 17 -5.5T403 228q0 -14 -6 -19.5T380 203H297V158h83q11 0 17 -5.5T403 133q0 -14 -6 -19.5T380 108H297V25Q297 11 285.5 1.5T245 -8q-29 0 -40.5 9.5T193 25v83H110q-11 0 -17 5.5T87 133q0 14 6 19.5t17 5.5h83v45H110q-11 0 -17 5.5T87 228q0 14 6 19.5t17 5.5h83v33Q127 301 90.5 351T54 473V679q0 14 11.5 23.5T106 712q29 0 40.5 -9.5T158 679V463q0 -42 22.5 -68T245 369q42 0 64.5 26T332 463V679q0 14 11.5 23.5T384 712q29 0 40.5 -9.5T436 679V473q0 -72 -37 -122T297 286V253h83Z"
></glyph
><glyph unicode="&#xa6;" horiz-adv-x="244" d="M122 -212q-26 0 -36.5 9T75 -180V183q0 14 10.5 23t36.5 9q26 0 36.5 -9T169 183V-180q0 -14 -10.5 -23T122 -212ZM122 354q-26 0 -36.5 9T75 386V749q0 14 10.5 23t36.5 9q26 0 36.5 -9T169 749V386q0 -14 -10.5 -23T122 354Z"
></glyph
><glyph unicode="&#xa7;" horiz-adv-x="390" d="M257 64q0 19 -3 32t-11.5 23.5T219 139t-38 20l-36 16Q94 198 68.5 233.5T43 323v5q0 41 16.5 71T109 446Q77 467 60 497T43 569v5q0 34 12 60.5T87 679t47.5 27.5T194 716q68 0 111 -37.5T348 578V561q0 -14 -10.5 -23T300 529q-28 0 -38.5 10T251 561v19q0 24 -14.5 38.5T196 633q-26 0 -41 -13.5T140 582q0 -16 3.5 -28.5t13.5 -24t27 -22T227 484l27 -13q52 -25 76 -58.5T354 326v-9q0 -38 -17.5 -69T289 200Q354 160 354 83V72Q354 38 341.5 11.5T308 -33T259 -60.5T200 -70q-34 0 -62.5 10t-49 28t-32 43T45 67V84q0 14 10.5 23T93 116q28 0 38.5 -10.5T142 84V65q0 -24 15.5 -38T199 13q26 0 42 13.5T257 64ZM206 244q23 5 37 22.5T257 313v11q0 29 -15.5 48T190 405q-23 -5 -37 -22.5T139 336V325q0 -29 15.5 -48T206 244Z"
></glyph
><glyph unicode="&#xa8;" horiz-adv-x="278" d="M69 602q-20 0 -31.5 11T26 641v35q0 17 11.5 28T69 715q20 0 31.5 -11T112 676V641q0 -17 -11.5 -28T69 602ZM209 602q-20 0 -31.5 11T166 641v35q0 17 11.5 28T209 715q20 0 31.5 -11T252 676V641q0 -17 -11.5 -28T209 602Z"
></glyph
><glyph unicode="&#xa9;" horiz-adv-x="558" d="M279 716q67 0 114 -25.5T470 619T513.5 510T527 372V332q0 -75 -13.5 -138T470 85T393 13.5T279 -12q-67 0 -114 25.5T88 85T44.5 194T31 332v40q0 75 13.5 138T88 619t77 71.5T279 716ZM279 30q61 0 100.5 25t62 67t31 96.5T481 332v40q0 59 -8.5 113.5t-31 96.5t-62 67T279 674q-61 0 -100.5 -25t-62 -67t-31 -96.5T77 372V332q0 -59 8.5 -113.5t31 -96.5t62 -67T279 30ZM147 441q0 55 36 91t96 36q60 0 96 -36t36 -91V419q0 -12 -9 -20t-32 -8q-23 0 -32 8t-9 20v13q0 27 -11.5 45.5T279 496q-27 0 -38.5 -18.5T229 432V272q0 -27 11.5 -45.5T279 208q27 0 38.5 18.5T329 272v13q0 12 9 20t32 8q23 0 32 -8t9 -20V263q0 -55 -36 -91T279 136q-60 0 -96 36t-36 91V441Z"
></glyph
><glyph unicode="&#xaa;" horiz-adv-x="300" d="M114 433q0 -44 36 -44q36 0 36 44v64q-2 -3 -13 -7l-27 -9q-14 -5 -23 -14t-9 -29v-5ZM186 596q0 44 -36 44q-36 0 -36 -44V586q0 -12 -9.5 -19.5T74 559q-20 0 -29.5 7.5T35 586v9q0 47 30 78.5T149 705q52 0 84 -30t32 -79V433q0 -26 -9 -46T231 353T194.5 331.5T150 324q-24 0 -44.5 7.5T69 353T44 387t-9 46v5q0 75 78 99l54 17q19 6 19 18v24Z"
></glyph
><glyph unicode="&#xab;" horiz-adv-x="452" d="M54 309q0 7 3 11.5T66 332L180 447q7 8 17.5 7T221 440q12 -12 12.5 -22T227 401L133 309l94 -92q7 -7 6.5 -17T221 178Q208 165 197.5 164T180 171L66 286q-6 7 -9 11.5T54 309ZM218 309q0 7 3 11.5t9 11.5L344 447q7 8 17.5 7T385 440q12 -12 12.5 -22T391 401L297 309l94 -92q7 -7 6.5 -17T385 178Q372 165 361.5 164T344 171L230 286q-6 7 -9 11.5T218 309Z"
></glyph
><glyph unicode="&#xac;" horiz-adv-x="460" d="M319 348H69q-12 0 -20 10t-8 33q0 23 8 33t20 10H390q29 0 29 -37V219q0 -14 -11.5 -23T369 187q-28 0 -39 9t-11 23V348Z"
></glyph
><glyph unicode="&#xad;" horiz-adv-x="340" d="M300 333q0 -23 -8 -33T272 290H68q-12 0 -20 10t-8 33q0 23 8 33t20 10H272q12 0 20 -10t8 -33Z"
></glyph
><glyph unicode="&#xae;" horiz-adv-x="558" d="M279 716q67 0 114 -25.5T470 619T513.5 510T527 372V332q0 -75 -13.5 -138T470 85T393 13.5T279 -12q-67 0 -114 25.5T88 85T44.5 194T31 332v40q0 75 13.5 138T88 619t77 71.5T279 716ZM279 30q61 0 100.5 25t62 67t31 96.5T481 332v40q0 59 -8.5 113.5t-31 96.5t-62 67T279 674q-61 0 -100.5 -25t-62 -67t-31 -96.5T77 372V332q0 -59 8.5 -113.5t31 -96.5t62 -67T279 30ZM325 436q0 33 -14 48t-40 15H241V373h30q26 0 40 15t14 48ZM407 163q0 -12 -9 -20t-32 -8q-23 0 -32 8t-9 20v38q0 57 -8.5 80T278 304H241V163q0 -12 -9 -20t-32 -8q-23 0 -32 8t-9 20V541q0 12 6.5 19.5T186 568h92q63 0 96 -33.5T407 438q0 -72 -45 -100q29 -18 37 -47t8 -79V163Z"
></glyph
><glyph unicode="&#xaf;" horiz-adv-x="278" d="M251 659q0 -20 -7.5 -28T224 623H54q-12 0 -19.5 8T27 659q0 20 7.5 28T54 695H224q12 0 19.5 -8T251 659Z"
></glyph
><glyph unicode="&#xb0;" horiz-adv-x="260" d="M242 599q0 -23 -9 -43T209 521T173.5 497.5T130 489q-23 0 -43.5 8.5T51 521T27 556t-9 43q0 23 9 43t24 35t35.5 23.5T130 709q23 0 43.5 -8.5T209 677t24 -35t9 -43ZM178 599q0 23 -14 36t-34 13q-20 0 -34 -13T82 599q0 -23 14 -36t34 -13q20 0 34 13t14 36Z"
></glyph
><glyph unicode="&#xb1;" horiz-adv-x="460" d="M420 116q0 -23 -8 -33T392 73H68Q56 73 48 83t-8 33q0 23 8 33t20 10H392q12 0 20 -10t8 -33ZM420 396q0 -23 -8 -33T392 353H280V236q0 -14 -12 -23t-38 -9q-26 0 -38 9t-12 23V353H68q-12 0 -20 10t-8 33q0 23 8 33t20 10H180V556q0 14 12 23t38 9q26 0 38 -9t12 -23V439H392q12 0 20 -10t8 -33Z"
></glyph
><glyph unicode="&#xb2;" horiz-adv-x="306" d="M115 577q0 -12 -9 -19.5T76 550q-22 0 -31.5 7.5T35 576v13q0 59 31.5 93T155 716q57 0 88.5 -34T275 589V558q0 -50 -20 -81.5T191 421Q150 399 136 381.5T122 339V319H251q10 0 17 -7.5T275 284q0 -20 -7 -27.5T251 249H63q-25 0 -25 27v58q0 51 21.5 81T128 470q38 20 52.5 39.5T195 558v39q0 22 -10 35t-30 13q-20 0 -30 -13T115 597V577Z"
></glyph
><glyph unicode="&#xb3;" horiz-adv-x="306" d="M196 400q0 22 -10.5 35T151 448H123q-25 0 -25 35q0 20 7 28t18 8h28q20 0 30 13t10 35v30q0 22 -10 35t-30 13q-20 0 -30 -13T111 597V587q0 -12 -9 -19.5T72 560q-22 0 -31.5 7.5T31 586v3q0 59 31.5 93T151 716q57 0 88.5 -34T271 588q0 -39 -8 -63T230 487q25 -13 35.5 -37.5T276 386V368q0 -59 -32.5 -93T151 241Q80 241 38 286q-8 8 -8.5 21.5T44 335q12 11 25.5 13.5T91 341q12 -14 27 -21.5T150 312q23 0 34.5 13T196 360v40Z"
></glyph
><glyph unicode="&#xb4;" horiz-adv-x="278" d="M152 733q8 10 18 10q14 0 27.5 -11T211 709q0 -9 -7 -18L126 595q-8 -10 -18 -10q-14 0 -27.5 11T67 619q0 9 7 18l78 96Z"
></glyph
><glyph unicode="&#xb5;" horiz-adv-x="420" d="M50 490q0 14 10.5 23T99 522q28 0 38.5 -9T148 490V134q2 -28 18.5 -45T210 72q29 0 45.5 19T272 140V490q0 14 10.5 23t38.5 9q28 0 38.5 -9T370 490V149Q370 77 331.5 32.5T220 -12q-19 0 -39 6.5T148 12V-188q0 -14 -10.5 -23T99 -220q-28 0 -38.5 9T50 -188V490Z"
></glyph
><glyph unicode="&#xb6;" horiz-adv-x="461" d="M371 704q20 0 28 -9t8 -26V-118q0 -11 -9.5 -18.5T367 -144q-20 0 -29.5 7.5T328 -118V633H304V-118q0 -11 -9.5 -18.5T264 -144q-21 0 -30 7.5t-9 18.5V272h-6q-38 0 -72.5 14.5T86.5 329T46 397.5T31 490q0 51 14 90.5t38.5 67t58 42T215 704H371Z"
></glyph
><glyph unicode="&#xb7;" horiz-adv-x="232" d="M116 267q-26 0 -40 13T62 316v33q0 23 14 36t40 13q26 0 40 -13t14 -36V316q0 -23 -14 -36T116 267Z"
></glyph
><glyph unicode="&#xb8;" horiz-adv-x="278" d="M88 -147q13 -6 25 -6q14 0 24.5 9t10.5 26q0 19 -14 28.5T100 -80q-11 0 -14.5 7.5T87 -56l33 66h70L163 -47q27 -7 43.5 -27T223 -125q0 -41 -28.5 -64.5T125 -213q-15 0 -28.5 2.5T72 -203q-20 9 -12 37q5 14 12.5 18t15.5 1Z"
></glyph
><glyph unicode="&#xb9;" horiz-adv-x="306" d="M213 271q0 -26 -40 -26q-22 0 -31 7t-9 19V628L79 617q-5 -1 -9.5 -1.5T61 615q-10 0 -18 9.5T35 660q0 24 18 27l83 15q12 2 23 3.5t23 1.5q15 0 23 -7.5T213 681V271Z"
></glyph
><glyph unicode="&#xba;" horiz-adv-x="300" d="M150 324q-24 0 -44.5 7.5T69 353T44 387t-9 46V596q0 25 9 45.5T69 676t36.5 21.5T150 705q24 0 44.5 -7.5T231 676t25 -34.5T265 596V433q0 -26 -9 -46T231 353T194.5 331.5T150 324ZM150 389q36 0 36 44V596q0 44 -36 44q-36 0 -36 -44V433q0 -44 36 -44Z"
></glyph
><glyph unicode="&#xbb;" horiz-adv-x="452" d="M398 309q0 -7 -3 -11.5T386 286L272 171q-7 -8 -17.5 -7T231 178q-12 12 -12.5 22t6.5 17l94 92l-94 92q-7 7 -6.5 17T231 440q13 13 23.5 14T272 447L386 332q6 -7 9 -11.5T398 309ZM234 309q0 -7 -3 -11.5T222 286L108 171q-7 -8 -17.5 -7T67 178Q55 190 54.5 200T61 217l94 92L61 401q-7 7 -6.5 17T67 440q13 13 23.5 14T108 447L222 332q6 -7 9 -11.5T234 309Z"
></glyph
><glyph unicode="&#xbc;" horiz-adv-x="731" d="M278 7Q273 -7 259 -7q-16 0 -27.5 7.5T220 17q0 5 2 11L455 697q5 14 19 14q16 0 27.5 -7.5T513 687q0 -5 -2 -11L278 7ZM213 271q0 -26 -40 -26q-22 0 -31 7t-9 19V628L79 617q-5 -1 -9.5 -1.5T61 615q-10 0 -18 9.5T35 660q0 24 18 27l83 15q12 2 23 3.5t23 1.5q15 0 23 -7.5T213 681V271ZM526 136h70V331Q584 315 572 293.5T549 249Q526 197 526 157V136ZM596 65H474q-26 0 -26 27v50q0 40 12.5 82.5T493 307q19 37 43 69.5T584 434q11 11 24 14.5t29 3.5h13q25 0 25 -26V135h21q11 0 17.5 -7.5T720 101q0 -19 -7 -28T696 64H675V17Q675 6 665.5 -1T636 -8q-21 0 -30.5 7T596 17V65Z"
></glyph
><glyph unicode="&#xbd;" horiz-adv-x="731" d="M540 332q0 -12 -9 -19.5T501 305q-22 0 -31.5 7.5T460 331v13q0 59 31.5 93T580 471q57 0 88.5 -34T700 344V313q0 -50 -20 -81.5T616 176Q575 154 561 136.5T547 94V74H676q10 0 17 -7.5T700 39q0 -20 -7 -27.5T676 4H488Q463 4 463 31V89q0 51 21.5 81T553 225q38 20 52.5 39.5T620 313v39q0 22 -10 35t-30 13q-20 0 -30 -13T540 352V332ZM278 7Q273 -7 259 -7q-16 0 -27.5 7.5T220 17q0 5 2 11L455 697q5 14 19 14q16 0 27.5 -7.5T513 687q0 -5 -2 -11L278 7ZM213 271q0 -26 -40 -26q-22 0 -31 7t-9 19V628L79 617q-5 -1 -9.5 -1.5T61 615q-10 0 -18 9.5T35 660q0 24 18 27l83 15q12 2 23 3.5t23 1.5q15 0 23 -7.5T213 681V271Z"
></glyph
><glyph unicode="&#xbe;" horiz-adv-x="731" d="M526 136h70V331Q584 315 572 293.5T549 249Q526 197 526 157V136ZM596 65H474q-26 0 -26 27v50q0 40 12.5 82.5T493 307q19 37 43 69.5T584 434q11 11 24 14.5t29 3.5h13q25 0 25 -26V135h21q11 0 17.5 -7.5T720 101q0 -19 -7 -28T696 64H675V17Q675 6 665.5 -1T636 -8q-21 0 -30.5 7T596 17V65ZM278 7Q273 -7 259 -7q-16 0 -27.5 7.5T220 17q0 5 2 11L455 697q5 14 19 14q16 0 27.5 -7.5T513 687q0 -5 -2 -11L278 7ZM196 400q0 22 -10.5 35T151 448H123q-25 0 -25 35q0 20 7 28t18 8h28q20 0 30 13t10 35v30q0 22 -10 35t-30 13q-20 0 -30 -13T111 597V587q0 -12 -9 -19.5T72 560q-22 0 -31.5 7.5T31 586v3q0 59 31.5 93T151 716q57 0 88.5 -34T271 588q0 -39 -8 -63T230 487q25 -13 35.5 -37.5T276 386V368q0 -59 -32.5 -93T151 241Q80 241 38 286q-8 8 -8.5 21.5T44 335q12 11 25.5 13.5T91 341q12 -14 27 -21.5T150 312q23 0 34.5 13T196 360v40Z"
></glyph
><glyph unicode="&#xbf;" horiz-adv-x="416" d="M220 526q26 0 40 -13t14 -36V444q0 -23 -14 -36T220 395q-26 0 -40 13t-14 36v33q0 23 14 36t40 13ZM38 -10q0 37 9.5 65T72 105t31.5 40.5T135 183t24.5 41t9.5 50v33q0 14 11.5 23.5T221 340q28 0 40 -10.5T273 307V261q0 -36 -9.5 -62.5T239 151T207.5 111.5T176 74.5T151.5 35T142 -14V-40q0 -31 16.5 -52.5T208 -114q33 0 49.5 21.5T274 -40v29q0 14 11.5 23.5T326 22q29 0 40.5 -9.5T378 -11V-32q0 -36 -11.5 -67T333 -153t-53.5 -36T208 -202q-40 0 -71.5 12.5t-53.5 35T49.5 -101T38 -34v24Z"
></glyph
><glyph unicode="&#xc0;" d="M250 716q43 0 78 -14t59.5 -39.5t38 -60.5T439 524V25Q439 11 427.5 1.5T387 -8q-29 0 -40.5 9.5T335 25V255H165V25Q165 11 153.5 1.5T113 -8Q84 -8 72.5 1.5T61 25V524q0 43 13.5 78t38 60.5T172 702t78 14ZM165 343H335V534q0 42 -22.5 68T250 628q-40 0 -62.5 -26T165 534V343ZM310 826q7 -9 7 -18q0 -12 -13.5 -23T276 774q-10 0 -18 10l-78 96q-7 9 -7 18q0 12 13.5 23T214 932q10 0 18 -10l78 -96Z"
></glyph
><glyph unicode="&#xc1;" d="M250 716q43 0 78 -14t59.5 -39.5t38 -60.5T439 524V25Q439 11 427.5 1.5T387 -8q-29 0 -40.5 9.5T335 25V255H165V25Q165 11 153.5 1.5T113 -8Q84 -8 72.5 1.5T61 25V524q0 43 13.5 78t38 60.5T172 702t78 14ZM165 343H335V534q0 42 -22.5 68T250 628q-40 0 -62.5 -26T165 534V343ZM268 922q8 10 18 10q14 0 27.5 -11T327 898q0 -9 -7 -18L242 784q-8 -10 -18 -10q-14 0 -27.5 11T183 808q0 9 7 18l78 96Z"
></glyph
><glyph unicode="&#xc2;" d="M250 716q43 0 78 -14t59.5 -39.5t38 -60.5T439 524V25Q439 11 427.5 1.5T387 -8q-29 0 -40.5 9.5T335 25V255H165V25Q165 11 153.5 1.5T113 -8Q84 -8 72.5 1.5T61 25V524q0 43 13.5 78t38 60.5T172 702t78 14ZM165 343H335V534q0 42 -22.5 68T250 628q-40 0 -62.5 -26T165 534V343ZM250 932q16 0 28 -13l81 -93q7 -9 7 -18q0 -12 -13.5 -23T325 774q-10 0 -18 10l-57 64L193 784q-8 -10 -18 -10q-14 0 -27.5 11T134 808q0 9 7 18l81 93q12 13 28 13Z"
></glyph
><glyph unicode="&#xc3;" d="M250 716q43 0 78 -14t59.5 -39.5t38 -60.5T439 524V25Q439 11 427.5 1.5T387 -8q-29 0 -40.5 9.5T335 25V255H165V25Q165 11 153.5 1.5T113 -8Q84 -8 72.5 1.5T61 25V524q0 43 13.5 78t38 60.5T172 702t78 14ZM165 343H335V534q0 42 -22.5 68T250 628q-40 0 -62.5 -26T165 534V343ZM303 789q-20 0 -34 8t-24 17t-17.5 17T213 839q-12 0 -12 -17v-5q0 -10 -7.5 -16T167 795q-19 0 -26.5 6T133 818v12q0 35 18 56t47 21q20 0 34 -8t24 -17t17.5 -17T288 857q12 0 12 17v5q0 10 7.5 16t26.5 6q19 0 26.5 -6T368 878V866q0 -35 -18 -56T303 789Z"
></glyph
><glyph unicode="&#xc4;" d="M250 716q43 0 78 -14t59.5 -39.5t38 -60.5T439 524V25Q439 11 427.5 1.5T387 -8q-29 0 -40.5 9.5T335 25V255H165V25Q165 11 153.5 1.5T113 -8Q84 -8 72.5 1.5T61 25V524q0 43 13.5 78t38 60.5T172 702t78 14ZM165 343H335V534q0 42 -22.5 68T250 628q-40 0 -62.5 -26T165 534V343ZM180 791q-20 0 -31.5 11T137 830v35q0 17 11.5 28T180 904q20 0 31.5 -11T223 865V830q0 -17 -11.5 -28T180 791ZM320 791q-20 0 -31.5 11T277 830v35q0 17 11.5 28T320 904q20 0 31.5 -11T363 865V830q0 -17 -11.5 -28T320 791Z"
></glyph
><glyph unicode="&#xc5;" d="M250 716q43 0 78 -14t59.5 -39.5t38 -60.5T439 524V25Q439 11 427.5 1.5T387 -8q-29 0 -40.5 9.5T335 25V255H165V25Q165 11 153.5 1.5T113 -8Q84 -8 72.5 1.5T61 25V524q0 43 13.5 78t38 60.5T172 702t78 14ZM165 343H335V534q0 42 -22.5 68T250 628q-40 0 -62.5 -26T165 534V343ZM338 853q0 -35 -25 -60T250 768q-38 0 -63 25t-25 60q0 35 25 60t63 25q38 0 63 -25t25 -60ZM282 853q0 15 -9 24t-23 9q-14 0 -23 -9t-9 -24q0 -15 9 -24t23 -9q14 0 23 9t9 24Z"
></glyph
><glyph unicode="&#xc6;" horiz-adv-x="669" d="M608 88q13 0 21 -10.5T637 44q0 -23 -8 -33.5T608 0H353Q322 0 322 36V255H165V25Q165 11 153.5 1.5T113 -8Q84 -8 72.5 1.5T61 25V512q0 43 13.5 78t38 60.5T172 690t78 14H605q29 0 29 -44q0 -44 -29 -44H426V405H583q13 0 21 -10.5T612 361q0 -23 -8 -33.5T583 317H426V88H608ZM165 343H322V616H250q-40 0 -62.5 -26T165 522V343Z"
></glyph
><glyph unicode="&#xc7;" horiz-adv-x="488" d="M196 -147q13 -6 25 -6q14 0 24.5 9t10.5 26q0 19 -14 28.5T208 -80q-11 0 -14.5 7.5T195 -56l23 46Q180 -6 150 9.5t-51 40t-32 58T56 180V524q0 43 13.5 78t38 60.5T167 702t78 14q43 0 78 -14t59.5 -39.5t38 -60.5T434 524V480q0 -14 -11.5 -23.5T382 447q-29 0 -40.5 9.5T330 480v54q0 42 -23 68t-62 26q-40 0 -62.5 -26T160 534V170q0 -42 22.5 -68T245 76q39 0 62 26t23 68v54q0 14 11.5 23.5T382 257q29 0 40.5 -9.5T434 224V180Q434 105 395 55T289 -8L271 -47q27 -7 43.5 -27T331 -125q0 -41 -28.5 -64.5T233 -213q-15 0 -28.5 2.5T180 -203q-20 9 -12 37q5 14 12.5 18t15.5 1Z"
></glyph
><glyph unicode="&#xc8;" horiz-adv-x="413" d="M352 88q13 0 21 -10.5T381 44q0 -23 -8 -33.5T352 0H92Q61 0 61 36V668q0 36 31 36H349q29 0 29 -44q0 -44 -29 -44H165V405H327q13 0 21 -10.5T356 361q0 -23 -8 -33.5T327 317H165V88H352ZM278 826q7 -9 7 -18q0 -12 -13.5 -23T244 774q-10 0 -18 10l-78 96q-7 9 -7 18q0 12 13.5 23T182 932q10 0 18 -10l78 -96Z"
></glyph
><glyph unicode="&#xc9;" horiz-adv-x="413" d="M352 88q13 0 21 -10.5T381 44q0 -23 -8 -33.5T352 0H92Q61 0 61 36V668q0 36 31 36H349q29 0 29 -44q0 -44 -29 -44H165V405H327q13 0 21 -10.5T356 361q0 -23 -8 -33.5T327 317H165V88H352ZM234 922q8 10 18 10q14 0 27.5 -11T293 898q0 -9 -7 -18L208 784q-8 -10 -18 -10q-14 0 -27.5 11T149 808q0 9 7 18l78 96Z"
></glyph
><glyph unicode="&#xca;" horiz-adv-x="413" d="M352 88q13 0 21 -10.5T381 44q0 -23 -8 -33.5T352 0H92Q61 0 61 36V668q0 36 31 36H349q29 0 29 -44q0 -44 -29 -44H165V405H327q13 0 21 -10.5T356 361q0 -23 -8 -33.5T327 317H165V88H352ZM215 932q16 0 28 -13l81 -93q7 -9 7 -18q0 -12 -13.5 -23T290 774q-10 0 -18 10l-57 64L158 784q-8 -10 -18 -10q-14 0 -27.5 11T99 808q0 9 7 18l81 93q12 13 28 13Z"
></glyph
><glyph unicode="&#xcb;" horiz-adv-x="413" d="M352 88q13 0 21 -10.5T381 44q0 -23 -8 -33.5T352 0H92Q61 0 61 36V668q0 36 31 36H349q29 0 29 -44q0 -44 -29 -44H165V405H327q13 0 21 -10.5T356 361q0 -23 -8 -33.5T327 317H165V88H352ZM146 791q-20 0 -31.5 11T103 830v35q0 17 11.5 28T146 904q20 0 31.5 -11T189 865V830q0 -17 -11.5 -28T146 791ZM286 791q-20 0 -31.5 11T243 830v35q0 17 11.5 28T286 904q20 0 31.5 -11T329 865V830q0 -17 -11.5 -28T286 791Z"
></glyph
><glyph unicode="&#xcc;" horiz-adv-x="244" d="M174 25Q174 11 162.5 1.5T122 -8Q93 -8 81.5 1.5T70 25V679q0 14 11.5 23.5T122 712q29 0 40.5 -9.5T174 679V25ZM166 826q7 -9 7 -18q0 -12 -13.5 -23T132 774q-10 0 -18 10L36 880q-7 9 -7 18q0 12 13.5 23T70 932q10 0 18 -10l78 -96Z"
></glyph
><glyph unicode="&#xcd;" horiz-adv-x="244" d="M174 25Q174 11 162.5 1.5T122 -8Q93 -8 81.5 1.5T70 25V679q0 14 11.5 23.5T122 712q29 0 40.5 -9.5T174 679V25ZM156 922q8 10 18 10q14 0 27.5 -11T215 898q0 -9 -7 -18L130 784q-8 -10 -18 -10q-14 0 -27.5 11T71 808q0 9 7 18l78 96Z"
></glyph
><glyph unicode="&#xce;" horiz-adv-x="244" d="M174 25Q174 11 162.5 1.5T122 -8Q93 -8 81.5 1.5T70 25V679q0 14 11.5 23.5T122 712q29 0 40.5 -9.5T174 679V25ZM122 932q16 0 28 -13l81 -93q7 -9 7 -18q0 -12 -13.5 -23T197 774q-10 0 -18 10l-57 64L65 784Q57 774 47 774q-14 0 -27.5 11T6 808q0 9 7 18l81 93q12 13 28 13Z"
></glyph
><glyph unicode="&#xcf;" horiz-adv-x="244" d="M174 25Q174 11 162.5 1.5T122 -8Q93 -8 81.5 1.5T70 25V679q0 14 11.5 23.5T122 712q29 0 40.5 -9.5T174 679V25ZM52 791q-20 0 -31.5 11T9 830v35q0 17 11.5 28T52 904q20 0 31.5 -11T95 865V830Q95 813 83.5 802T52 791ZM192 791q-20 0 -31.5 11T149 830v35q0 17 11.5 28T192 904q20 0 31.5 -11T235 865V830q0 -17 -11.5 -28T192 791Z"
></glyph
><glyph unicode="&#xd0;" horiz-adv-x="497" d="M252 704q43 0 78 -14t59.5 -39.5t38 -60.5T441 512V192q0 -43 -13.5 -78t-38 -60.5T330 14T252 0H106Q75 0 75 36V322H32q-10 0 -16 6.5T10 352q0 17 6 23.5T32 382H75V668q0 36 31 36H252ZM247 382q11 0 16.5 -6.5T269 352q0 -17 -5.5 -23.5T247 322H179V88h73q40 0 62.5 26T337 182V522q0 42 -22.5 68T252 616H179V382h68Z"
></glyph
><glyph unicode="&#xd1;" d="M335 534q0 42 -22.5 68T250 628q-40 0 -62.5 -26T165 534V25Q165 11 153.5 1.5T113 -8Q84 -8 72.5 1.5T61 25V524q0 43 13.5 78t38 60.5T172 702t78 14q43 0 78 -14t59.5 -39.5t38 -60.5T439 524V25Q439 11 427.5 1.5T387 -8q-29 0 -40.5 9.5T335 25V534ZM303 789q-20 0 -34 8t-24 17t-17.5 17T213 839q-12 0 -12 -17v-5q0 -10 -7.5 -16T167 795q-19 0 -26.5 6T133 818v12q0 35 18 56t47 21q20 0 34 -8t24 -17t17.5 -17T288 857q12 0 12 17v5q0 10 7.5 16t26.5 6q19 0 26.5 -6T368 878V866q0 -35 -18 -56T303 789Z"
></glyph
><glyph unicode="&#xd2;" horiz-adv-x="490" d="M56 524q0 43 13.5 78t38 60.5T167 702t78 14q43 0 78 -14t59.5 -39.5t38 -60.5T434 524V180q0 -43 -13.5 -78t-38 -60.5T323 2T245 -12q-43 0 -78 14T107.5 41.5T69.5 102T56 180V524ZM160 170q0 -42 22.5 -68T245 76q39 0 62 26t23 68V534q0 42 -23 68t-62 26q-40 0 -62.5 -26T160 534V170ZM305 826q7 -9 7 -18q0 -12 -13.5 -23T271 774q-10 0 -18 10l-78 96q-7 9 -7 18q0 12 13.5 23T209 932q10 0 18 -10l78 -96Z"
></glyph
><glyph unicode="&#xd3;" horiz-adv-x="490" d="M56 524q0 43 13.5 78t38 60.5T167 702t78 14q43 0 78 -14t59.5 -39.5t38 -60.5T434 524V180q0 -43 -13.5 -78t-38 -60.5T323 2T245 -12q-43 0 -78 14T107.5 41.5T69.5 102T56 180V524ZM160 170q0 -42 22.5 -68T245 76q39 0 62 26t23 68V534q0 42 -23 68t-62 26q-40 0 -62.5 -26T160 534V170ZM263 922q8 10 18 10q14 0 27.5 -11T322 898q0 -9 -7 -18L237 784q-8 -10 -18 -10q-14 0 -27.5 11T178 808q0 9 7 18l78 96Z"
></glyph
><glyph unicode="&#xd4;" horiz-adv-x="490" d="M56 524q0 43 13.5 78t38 60.5T167 702t78 14q43 0 78 -14t59.5 -39.5t38 -60.5T434 524V180q0 -43 -13.5 -78t-38 -60.5T323 2T245 -12q-43 0 -78 14T107.5 41.5T69.5 102T56 180V524ZM160 170q0 -42 22.5 -68T245 76q39 0 62 26t23 68V534q0 42 -23 68t-62 26q-40 0 -62.5 -26T160 534V170ZM245 932q16 0 28 -13l81 -93q7 -9 7 -18q0 -12 -13.5 -23T320 774q-10 0 -18 10l-57 64L188 784q-8 -10 -18 -10q-14 0 -27.5 11T129 808q0 9 7 18l81 93q12 13 28 13Z"
></glyph
><glyph unicode="&#xd5;" horiz-adv-x="490" d="M56 524q0 43 13.5 78t38 60.5T167 702t78 14q43 0 78 -14t59.5 -39.5t38 -60.5T434 524V180q0 -43 -13.5 -78t-38 -60.5T323 2T245 -12q-43 0 -78 14T107.5 41.5T69.5 102T56 180V524ZM160 170q0 -42 22.5 -68T245 76q39 0 62 26t23 68V534q0 42 -23 68t-62 26q-40 0 -62.5 -26T160 534V170ZM298 789q-20 0 -34 8t-24 17t-17.5 17T208 839q-12 0 -12 -17v-5q0 -10 -7.5 -16T162 795q-19 0 -26.5 6T128 818v12q0 35 18 56t47 21q20 0 34 -8t24 -17t17.5 -17T283 857q12 0 12 17v5q0 10 7.5 16t26.5 6q19 0 26.5 -6T363 878V866q0 -35 -18 -56T298 789Z"
></glyph
><glyph unicode="&#xd6;" horiz-adv-x="490" d="M56 524q0 43 13.5 78t38 60.5T167 702t78 14q43 0 78 -14t59.5 -39.5t38 -60.5T434 524V180q0 -43 -13.5 -78t-38 -60.5T323 2T245 -12q-43 0 -78 14T107.5 41.5T69.5 102T56 180V524ZM160 170q0 -42 22.5 -68T245 76q39 0 62 26t23 68V534q0 42 -23 68t-62 26q-40 0 -62.5 -26T160 534V170ZM176 791q-20 0 -31.5 11T133 830v35q0 17 11.5 28T176 904q20 0 31.5 -11T219 865V830q0 -17 -11.5 -28T176 791ZM316 791q-20 0 -31.5 11T273 830v35q0 17 11.5 28T316 904q20 0 31.5 -11T359 865V830q0 -17 -11.5 -28T316 791Z"
></glyph
><glyph unicode="&#xd7;" horiz-adv-x="460" d="M230 262L146 177q-10 -10 -25 -8T88 189Q69 208 67 222.5T75 247l86 85L75 417q-10 10 -8 24.5T88 475q18 19 33.5 21T146 488l84 -86l84 86q9 10 24.5 8T372 475q19 -19 21 -33.5T385 417L299 332l86 -85q10 -10 8 -24.5T372 189Q354 171 339 169t-25 8l-84 85Z"
></glyph
><glyph unicode="&#xd8;" horiz-adv-x="490" d="M95 -67Q87 -85 74 -85q-11 0 -22.5 7T40 -61q0 5 3 13L90 62Q56 110 56 180V524q0 43 13.5 78t38 60.5T167 702t78 14q33 0 61 -8.5T357 684l38 87q7 18 21 18q11 0 22.5 -7T450 765q0 -6 -3 -13L400 642q34 -49 34 -118V180q0 -43 -13.5 -78t-38 -60.5T323 2T245 -12q-33 0 -61.5 8.5T132 20L95 -67ZM245 628q-40 0 -62.5 -26T160 534V224L317 588q-22 40 -72 40ZM245 76q39 0 62 26t23 68V479L173 115Q195 76 245 76Z"
></glyph
><glyph unicode="&#xd9;" d="M335 679q0 14 11.5 23.5T387 712q29 0 40.5 -9.5T439 679V180q0 -43 -13.5 -78t-38 -60.5T328 2T250 -12q-43 0 -78 14T112.5 41.5T74.5 102T61 180V679q0 14 11.5 23.5T113 712q29 0 40.5 -9.5T165 679V170q0 -42 22.5 -68T250 76q40 0 62.5 26T335 170V679ZM310 826q7 -9 7 -18q0 -12 -13.5 -23T276 774q-10 0 -18 10l-78 96q-7 9 -7 18q0 12 13.5 23T214 932q10 0 18 -10l78 -96Z"
></glyph
><glyph unicode="&#xda;" d="M335 679q0 14 11.5 23.5T387 712q29 0 40.5 -9.5T439 679V180q0 -43 -13.5 -78t-38 -60.5T328 2T250 -12q-43 0 -78 14T112.5 41.5T74.5 102T61 180V679q0 14 11.5 23.5T113 712q29 0 40.5 -9.5T165 679V170q0 -42 22.5 -68T250 76q40 0 62.5 26T335 170V679ZM268 922q8 10 18 10q14 0 27.5 -11T327 898q0 -9 -7 -18L242 784q-8 -10 -18 -10q-14 0 -27.5 11T183 808q0 9 7 18l78 96Z"
></glyph
><glyph unicode="&#xdb;" d="M335 679q0 14 11.5 23.5T387 712q29 0 40.5 -9.5T439 679V180q0 -43 -13.5 -78t-38 -60.5T328 2T250 -12q-43 0 -78 14T112.5 41.5T74.5 102T61 180V679q0 14 11.5 23.5T113 712q29 0 40.5 -9.5T165 679V170q0 -42 22.5 -68T250 76q40 0 62.5 26T335 170V679ZM250 932q16 0 28 -13l81 -93q7 -9 7 -18q0 -12 -13.5 -23T325 774q-10 0 -18 10l-57 64L193 784q-8 -10 -18 -10q-14 0 -27.5 11T134 808q0 9 7 18l81 93q12 13 28 13Z"
></glyph
><glyph unicode="&#xdc;" d="M335 679q0 14 11.5 23.5T387 712q29 0 40.5 -9.5T439 679V180q0 -43 -13.5 -78t-38 -60.5T328 2T250 -12q-43 0 -78 14T112.5 41.5T74.5 102T61 180V679q0 14 11.5 23.5T113 712q29 0 40.5 -9.5T165 679V170q0 -42 22.5 -68T250 76q40 0 62.5 26T335 170V679ZM180 791q-20 0 -31.5 11T137 830v35q0 17 11.5 28T180 904q20 0 31.5 -11T223 865V830q0 -17 -11.5 -28T180 791ZM320 791q-20 0 -31.5 11T277 830v35q0 17 11.5 28T320 904q20 0 31.5 -11T363 865V830q0 -17 -11.5 -28T320 791Z"
></glyph
><glyph unicode="&#xdd;" horiz-adv-x="490" d="M297 25Q297 11 285.5 1.5T245 -8q-29 0 -40.5 9.5T193 25V237Q127 252 90.5 302T54 424V679q0 14 11.5 23.5T106 712q29 0 40.5 -9.5T158 679V414q0 -42 22.5 -68T245 320q42 0 64.5 26T332 414V679q0 14 11.5 23.5T384 712q29 0 40.5 -9.5T436 679V424q0 -72 -37 -122T297 237V25ZM263 922q8 10 18 10q14 0 27.5 -11T322 898q0 -9 -7 -18L237 784q-8 -10 -18 -10q-14 0 -27.5 11T178 808q0 9 7 18l78 96Z"
></glyph
><glyph unicode="&#xde;" horiz-adv-x="449" d="M165 570h68q85 0 132.5 -51T413 384V319q0 -84 -47.5 -135T233 133H165V25Q165 11 153.5 1.5T113 -8Q84 -8 72.5 1.5T61 25V679q0 14 11.5 23.5T113 712q29 0 40.5 -9.5T165 679V570ZM309 384q0 48 -20 73t-59 25H165V221h65q39 0 59 25t20 73v65Z"
></glyph
><glyph unicode="&#xdf;" horiz-adv-x="476" d="M252 -8q-29 0 -44 7.5T193 33q0 26 9.5 37T223 81q5 0 10 -1t12 -1q37 0 58 24.5T324 188v15q0 55 -19 85t-61 30h-6q-29 0 -29 44q0 44 29 44q38 0 52.5 29T305 521v29q0 33 -17.5 55.5T235 628q-35 0 -52.5 -22.5T165 550V25Q165 11 153 1.5T113 -8Q84 -8 72.5 1.5T61 25V544q0 36 12 67.5T107.5 666T162 702.5T235 716q41 0 73 -13.5T362.5 666T397 611.5T409 544V512q0 -57 -16.5 -94T337 364q42 -13 66.5 -52.5T428 216V172q0 -39 -10.5 -72t-32 -57T330.5 5.5T252 -8Z"
></glyph
><glyph unicode="&#xe0;" horiz-adv-x="406" d="M44 143q0 57 25.5 91.5T158 289l79 25q26 8 27 23v40q0 30 -15.5 47.5T204 442q-29 0 -44.5 -17.5T144 377V359q0 -14 -10.5 -23T95 327q-28 0 -38.5 9T46 359v6q0 74 41.5 117.5T204 526q74 0 116 -44.5T362 365V149q0 -36 -11.5 -65.5T318 33T268 0T203 -12q-36 0 -65.5 12T87 33T55 82T44 143ZM190 209Q142 194 142 142v-2q0 -30 16 -49T203 72q29 0 45 19t16 49v98q-4 -7 -20 -12L190 209ZM263 632q7 -9 7 -18q0 -12 -13.5 -23T229 580q-10 0 -18 10l-78 96q-7 9 -7 18q0 12 13.5 23T167 738q10 0 18 -10l78 -96Z"
></glyph
><glyph unicode="&#xe1;" horiz-adv-x="406" d="M44 143q0 57 25.5 91.5T158 289l79 25q26 8 27 23v40q0 30 -15.5 47.5T204 442q-29 0 -44.5 -17.5T144 377V359q0 -14 -10.5 -23T95 327q-28 0 -38.5 9T46 359v6q0 74 41.5 117.5T204 526q74 0 116 -44.5T362 365V149q0 -36 -11.5 -65.5T318 33T268 0T203 -12q-36 0 -65.5 12T87 33T55 82T44 143ZM190 209Q142 194 142 142v-2q0 -30 16 -49T203 72q29 0 45 19t16 49v98q-4 -7 -20 -12L190 209ZM221 728q8 10 18 10q14 0 27.5 -11T280 704q0 -9 -7 -18L195 590q-8 -10 -18 -10q-14 0 -27.5 11T136 614q0 9 7 18l78 96Z"
></glyph
><glyph unicode="&#xe2;" horiz-adv-x="406" d="M44 143q0 57 25.5 91.5T158 289l79 25q26 8 27 23v40q0 30 -15.5 47.5T204 442q-29 0 -44.5 -17.5T144 377V359q0 -14 -10.5 -23T95 327q-28 0 -38.5 9T46 359v6q0 74 41.5 117.5T204 526q74 0 116 -44.5T362 365V149q0 -36 -11.5 -65.5T318 33T268 0T203 -12q-36 0 -65.5 12T87 33T55 82T44 143ZM190 209Q142 194 142 142v-2q0 -30 16 -49T203 72q29 0 45 19t16 49v98q-4 -7 -20 -12L190 209ZM203 738q16 0 28 -13l81 -93q7 -9 7 -18q0 -12 -13.5 -23T278 580q-10 0 -18 10l-57 64L146 590q-8 -10 -18 -10q-14 0 -27.5 11T87 614q0 9 7 18l81 93q12 13 28 13Z"
></glyph
><glyph unicode="&#xe3;" horiz-adv-x="406" d="M44 143q0 57 25.5 91.5T158 289l79 25q26 8 27 23v40q0 30 -15.5 47.5T204 442q-29 0 -44.5 -17.5T144 377V359q0 -14 -10.5 -23T95 327q-28 0 -38.5 9T46 359v6q0 74 41.5 117.5T204 526q74 0 116 -44.5T362 365V149q0 -36 -11.5 -65.5T318 33T268 0T203 -12q-36 0 -65.5 12T87 33T55 82T44 143ZM190 209Q142 194 142 142v-2q0 -30 16 -49T203 72q29 0 45 19t16 49v98q-4 -7 -20 -12L190 209ZM256 595q-20 0 -34 8t-24 17t-17.5 17T166 645q-12 0 -12 -17v-5q0 -10 -7.5 -16T120 601q-19 0 -26.5 6T86 624v12q0 35 18 56t47 21q20 0 34 -8t24 -17t17.5 -17T241 663q12 0 12 17v5q0 10 7.5 16t26.5 6q19 0 26.5 -6T321 684V672q0 -35 -18 -56T256 595Z"
></glyph
><glyph unicode="&#xe4;" horiz-adv-x="406" d="M44 143q0 57 25.5 91.5T158 289l79 25q26 8 27 23v40q0 30 -15.5 47.5T204 442q-29 0 -44.5 -17.5T144 377V359q0 -14 -10.5 -23T95 327q-28 0 -38.5 9T46 359v6q0 74 41.5 117.5T204 526q74 0 116 -44.5T362 365V149q0 -36 -11.5 -65.5T318 33T268 0T203 -12q-36 0 -65.5 12T87 33T55 82T44 143ZM190 209Q142 194 142 142v-2q0 -30 16 -49T203 72q29 0 45 19t16 49v98q-4 -7 -20 -12L190 209ZM133 597q-20 0 -31.5 11T90 636v35q0 17 11.5 28T133 710q20 0 31.5 -11T176 671V636q0 -17 -11.5 -28T133 597ZM273 597q-20 0 -31.5 11T230 636v35q0 17 11.5 28T273 710q20 0 31.5 -11T316 671V636q0 -17 -11.5 -28T273 597Z"
></glyph
><glyph unicode="&#xe5;" horiz-adv-x="406" d="M44 143q0 57 25.5 91.5T158 289l79 25q26 8 27 23v40q0 30 -15.5 47.5T204 442q-29 0 -44.5 -17.5T144 377V359q0 -14 -10.5 -23T95 327q-28 0 -38.5 9T46 359v6q0 74 41.5 117.5T204 526q74 0 116 -44.5T362 365V149q0 -36 -11.5 -65.5T318 33T268 0T203 -12q-36 0 -65.5 12T87 33T55 82T44 143ZM190 209Q142 194 142 142v-2q0 -30 16 -49T203 72q29 0 45 19t16 49v98q-4 -7 -20 -12L190 209ZM291 659q0 -35 -25 -60T203 574q-38 0 -63 25t-25 60q0 35 25 60t63 25q38 0 63 -25t25 -60ZM235 659q0 15 -9 24t-23 9q-14 0 -23 -9t-9 -24q0 -15 9 -24t23 -9q14 0 23 9t9 24Z"
></glyph
><glyph unicode="&#xe6;" horiz-adv-x="628" d="M45 143q0 57 25.5 91.5T159 289l79 25q27 7 27 21v42q0 30 -15.5 47.5T205 442q-29 0 -44.5 -17.5T145 377V359q0 -14 -10.5 -23T96 327q-28 0 -38.5 9T47 359v6q0 74 41 117.5T203 526q32 0 62.5 -13.5T314 475q17 24 45.5 37.5T426 526q36 0 65 -12t49.5 -33T572 432t11 -61q0 -57 -25.5 -91.5T469 225L390 200q-26 -9 -27 -22V137q0 -30 15.5 -47.5T423 72q29 0 44.5 17.5T483 137v18q0 14 10.5 23t38.5 9q28 0 38.5 -9T581 155v-6Q581 75 540 31.5T425 -12q-32 0 -62.5 13.5T314 39Q297 15 268.5 1.5T202 -12q-36 0 -65 12T87.5 33T56 82T45 143ZM191 209Q143 194 143 142v-2q0 -30 16 -49T204 72q29 0 45 19t16 49v98q-4 -7 -20 -12L191 209ZM437 305q48 15 48 67v2q0 30 -16 49t-45 19q-29 0 -45 -19T363 374V276q4 7 20 12l54 17Z"
></glyph
><glyph unicode="&#xe7;" horiz-adv-x="410" d="M155 -147q13 -6 25 -6q14 0 24.5 9t10.5 26q0 19 -14 28.5T167 -80q-11 0 -14.5 7.5T154 -56l23 46Q117 -2 81 41T45 149V365q0 36 11.5 65.5T89 481t50.5 33T205 526q75 0 117.5 -44.5T365 365V346q0 -14 -10.5 -23T316 314q-28 0 -38.5 9T267 346v28q0 30 -16.5 49T205 442q-29 0 -45.5 -19T143 374V140q0 -30 16.5 -49T205 72q29 0 45.5 19T267 140v28q0 14 10.5 23t38.5 9q28 0 38.5 -9T365 168V149Q365 89 334.5 47.5T249 -7L230 -47q27 -7 43.5 -27T290 -125q0 -41 -28.5 -64.5T192 -213q-15 0 -28.5 2.5T139 -203q-20 9 -12 37q5 14 12.5 18t15.5 1Z"
></glyph
><glyph unicode="&#xe8;" horiz-adv-x="406" d="M362 371q0 -57 -25.5 -91.5T248 225L169 200q-26 -8 -27 -23V137q0 -30 15.5 -47.5T202 72q29 0 44.5 17.5T262 137v18q0 14 10.5 23t38.5 9q28 0 38.5 -9T360 155v-6Q360 75 318.5 31.5T202 -12Q128 -12 86 32.5T44 149V365q0 36 11.5 65.5T88 481t50 33t65 12q36 0 65.5 -12T319 481t32 -49t11 -61ZM216 305q48 15 48 67v2q0 30 -16 49t-45 19q-29 0 -45 -19T142 374V276q4 7 20 12l54 17ZM258 632q7 -9 7 -18q0 -12 -13.5 -23T224 580q-10 0 -18 10l-78 96q-7 9 -7 18q0 12 13.5 23T162 738q10 0 18 -10l78 -96Z"
></glyph
><glyph unicode="&#xe9;" horiz-adv-x="406" d="M362 371q0 -57 -25.5 -91.5T248 225L169 200q-26 -8 -27 -23V137q0 -30 15.5 -47.5T202 72q29 0 44.5 17.5T262 137v18q0 14 10.5 23t38.5 9q28 0 38.5 -9T360 155v-6Q360 75 318.5 31.5T202 -12Q128 -12 86 32.5T44 149V365q0 36 11.5 65.5T88 481t50 33t65 12q36 0 65.5 -12T319 481t32 -49t11 -61ZM216 305q48 15 48 67v2q0 30 -16 49t-45 19q-29 0 -45 -19T142 374V276q4 7 20 12l54 17ZM220 728q8 10 18 10q14 0 27.5 -11T279 704q0 -9 -7 -18L194 590q-8 -10 -18 -10q-14 0 -27.5 11T135 614q0 9 7 18l78 96Z"
></glyph
><glyph unicode="&#xea;" horiz-adv-x="406" d="M362 371q0 -57 -25.5 -91.5T248 225L169 200q-26 -8 -27 -23V137q0 -30 15.5 -47.5T202 72q29 0 44.5 17.5T262 137v18q0 14 10.5 23t38.5 9q28 0 38.5 -9T360 155v-6Q360 75 318.5 31.5T202 -12Q128 -12 86 32.5T44 149V365q0 36 11.5 65.5T88 481t50 33t65 12q36 0 65.5 -12T319 481t32 -49t11 -61ZM216 305q48 15 48 67v2q0 30 -16 49t-45 19q-29 0 -45 -19T142 374V276q4 7 20 12l54 17ZM199 738q16 0 28 -13l81 -93q7 -9 7 -18q0 -12 -13.5 -23T274 580q-10 0 -18 10l-57 64L142 590q-8 -10 -18 -10q-14 0 -27.5 11T83 614q0 9 7 18l81 93q12 13 28 13Z"
></glyph
><glyph unicode="&#xeb;" horiz-adv-x="406" d="M362 371q0 -57 -25.5 -91.5T248 225L169 200q-26 -8 -27 -23V137q0 -30 15.5 -47.5T202 72q29 0 44.5 17.5T262 137v18q0 14 10.5 23t38.5 9q28 0 38.5 -9T360 155v-6Q360 75 318.5 31.5T202 -12Q128 -12 86 32.5T44 149V365q0 36 11.5 65.5T88 481t50 33t65 12q36 0 65.5 -12T319 481t32 -49t11 -61ZM216 305q48 15 48 67v2q0 30 -16 49t-45 19q-29 0 -45 -19T142 374V276q4 7 20 12l54 17ZM129 597q-20 0 -31.5 11T86 636v35q0 17 11.5 28T129 710q20 0 31.5 -11T172 671V636q0 -17 -11.5 -28T129 597ZM269 597q-20 0 -31.5 11T226 636v35q0 17 11.5 28T269 710q20 0 31.5 -11T312 671V636q0 -17 -11.5 -28T269 597Z"
></glyph
><glyph unicode="&#xec;" horiz-adv-x="216" d="M157 24Q157 10 146.5 1T108 -8Q80 -8 69.5 1T59 24V490q0 14 10.5 23t38.5 9q28 0 38.5 -9T157 490V24ZM147 632q7 -9 7 -18q0 -12 -13.5 -23T113 580q-10 0 -18 10L17 686q-7 9 -7 18q0 12 13.5 23T51 738q10 0 18 -10l78 -96Z"
></glyph
><glyph unicode="&#xed;" horiz-adv-x="216" d="M157 24Q157 10 146.5 1T108 -8Q80 -8 69.5 1T59 24V490q0 14 10.5 23t38.5 9q28 0 38.5 -9T157 490V24ZM147 728q8 10 18 10q14 0 27.5 -11T206 704q0 -9 -7 -18L121 590q-8 -10 -18 -10q-14 0 -27.5 11T62 614q0 9 7 18l78 96Z"
></glyph
><glyph unicode="&#xee;" horiz-adv-x="216" d="M157 24Q157 10 146.5 1T108 -8Q80 -8 69.5 1T59 24V490q0 14 10.5 23t38.5 9q28 0 38.5 -9T157 490V24ZM108 738q16 0 28 -13l81 -93q7 -9 7 -18q0 -12 -13.5 -23T183 580q-10 0 -18 10l-57 64L51 590Q43 580 33 580Q19 580 5.5 591T-8 614q0 9 7 18l81 93q12 13 28 13Z"
></glyph
><glyph unicode="&#xef;" horiz-adv-x="216" d="M157 24Q157 10 146.5 1T108 -8Q80 -8 69.5 1T59 24V490q0 14 10.5 23t38.5 9q28 0 38.5 -9T157 490V24ZM38 597Q18 597 6.5 608T-5 636v35q0 17 11.5 28T38 710q20 0 31.5 -11T81 671V636Q81 619 69.5 608T38 597ZM178 597q-20 0 -31.5 11T135 636v35q0 17 11.5 28T178 710q20 0 31.5 -11T221 671V636q0 -17 -11.5 -28T178 597Z"
></glyph
><glyph unicode="&#xf0;" horiz-adv-x="415" d="M365 149q0 -36 -11.5 -65.5T321 33T270.5 0T205 -12q-36 0 -65.5 12T89 33T56.5 83.5T45 149V365q0 72 38.5 116.5T195 526q19 0 39 -6.5T267 502v59q0 25 -6 43L218 573q-8 -6 -13 -6q-8 0 -15.5 9T182 594q0 8 9 14l46 33q-20 13 -44 13q-17 0 -32.5 -7.5T131 626Q121 616 107 616q-8 0 -17 4.5t-16 12T62.5 650T58 670q0 11 10 21q22 22 56.5 34.5T197 738q74 0 118 -41l42 30q7 6 13 6q8 0 15.5 -9T393 706q0 -8 -9 -14L342 662q23 -44 23 -107V149ZM143 140q0 -30 16.5 -49T205 72q29 0 45.5 19T267 140V380q0 28 -17.5 45T205 442q-29 0 -45.5 -19T143 374V140Z"
></glyph
><glyph unicode="&#xf1;" horiz-adv-x="420" d="M210 526q36 0 65.5 -12T326 481t32.5 -50.5T370 365V24Q370 10 359.5 1T321 -8q-28 0 -38.5 9T272 24V374q0 30 -16.5 49T210 442q-29 0 -45.5 -19T148 374V24Q148 10 137.5 1T99 -8Q71 -8 60.5 1T50 24V365q0 36 11.5 65.5T94 481t50.5 33T210 526ZM263 595q-20 0 -34 8t-24 17t-17.5 17T173 645q-12 0 -12 -17v-5q0 -10 -7.5 -16T127 601q-19 0 -26.5 6T93 624v12q0 35 18 56t47 21q20 0 34 -8t24 -17t17.5 -17T248 663q12 0 12 17v5q0 10 7.5 16t26.5 6q19 0 26.5 -6T328 684V672q0 -35 -18 -56T263 595Z"
></glyph
><glyph unicode="&#xf2;" horiz-adv-x="408" d="M266 374q0 30 -16.5 49T204 442q-29 0 -45.5 -19T142 374V140q0 -30 16.5 -49T204 72q29 0 45.5 19T266 140V374ZM364 149q0 -36 -11.5 -65.5T320 33T269.5 0T204 -12q-36 0 -65.5 12T88 33T55.5 83.5T44 149V365q0 36 11.5 65.5T88 481t50.5 33T204 526q36 0 65.5 -12T320 481t32.5 -50.5T364 365V149ZM264 632q7 -9 7 -18q0 -12 -13.5 -23T230 580q-10 0 -18 10l-78 96q-7 9 -7 18q0 12 13.5 23T168 738q10 0 18 -10l78 -96Z"
></glyph
><glyph unicode="&#xf3;" horiz-adv-x="408" d="M266 374q0 30 -16.5 49T204 442q-29 0 -45.5 -19T142 374V140q0 -30 16.5 -49T204 72q29 0 45.5 19T266 140V374ZM364 149q0 -36 -11.5 -65.5T320 33T269.5 0T204 -12q-36 0 -65.5 12T88 33T55.5 83.5T44 149V365q0 36 11.5 65.5T88 481t50.5 33T204 526q36 0 65.5 -12T320 481t32.5 -50.5T364 365V149ZM222 728q8 10 18 10q14 0 27.5 -11T281 704q0 -9 -7 -18L196 590q-8 -10 -18 -10q-14 0 -27.5 11T137 614q0 9 7 18l78 96Z"
></glyph
><glyph unicode="&#xf4;" horiz-adv-x="408" d="M266 374q0 30 -16.5 49T204 442q-29 0 -45.5 -19T142 374V140q0 -30 16.5 -49T204 72q29 0 45.5 19T266 140V374ZM364 149q0 -36 -11.5 -65.5T320 33T269.5 0T204 -12q-36 0 -65.5 12T88 33T55.5 83.5T44 149V365q0 36 11.5 65.5T88 481t50.5 33T204 526q36 0 65.5 -12T320 481t32.5 -50.5T364 365V149ZM204 738q16 0 28 -13l81 -93q7 -9 7 -18q0 -12 -13.5 -23T279 580q-10 0 -18 10l-57 64L147 590q-8 -10 -18 -10q-14 0 -27.5 11T88 614q0 9 7 18l81 93q12 13 28 13Z"
></glyph
><glyph unicode="&#xf5;" horiz-adv-x="408" d="M266 374q0 30 -16.5 49T204 442q-29 0 -45.5 -19T142 374V140q0 -30 16.5 -49T204 72q29 0 45.5 19T266 140V374ZM364 149q0 -36 -11.5 -65.5T320 33T269.5 0T204 -12q-36 0 -65.5 12T88 33T55.5 83.5T44 149V365q0 36 11.5 65.5T88 481t50.5 33T204 526q36 0 65.5 -12T320 481t32.5 -50.5T364 365V149ZM257 595q-20 0 -34 8t-24 17t-17.5 17T167 645q-12 0 -12 -17v-5q0 -10 -7.5 -16T121 601q-19 0 -26.5 6T87 624v12q0 35 18 56t47 21q20 0 34 -8t24 -17t17.5 -17T242 663q12 0 12 17v5q0 10 7.5 16t26.5 6q19 0 26.5 -6T322 684V672q0 -35 -18 -56T257 595Z"
></glyph
><glyph unicode="&#xf6;" horiz-adv-x="408" d="M266 374q0 30 -16.5 49T204 442q-29 0 -45.5 -19T142 374V140q0 -30 16.5 -49T204 72q29 0 45.5 19T266 140V374ZM364 149q0 -36 -11.5 -65.5T320 33T269.5 0T204 -12q-36 0 -65.5 12T88 33T55.5 83.5T44 149V365q0 36 11.5 65.5T88 481t50.5 33T204 526q36 0 65.5 -12T320 481t32.5 -50.5T364 365V149ZM134 597q-20 0 -31.5 11T91 636v35q0 17 11.5 28T134 710q20 0 31.5 -11T177 671V636q0 -17 -11.5 -28T134 597ZM274 597q-20 0 -31.5 11T231 636v35q0 17 11.5 28T274 710q20 0 31.5 -11T317 671V636q0 -17 -11.5 -28T274 597Z"
></glyph
><glyph unicode="&#xf7;" horiz-adv-x="460" d="M420 333q0 -23 -8 -33T392 290H68q-12 0 -20 10t-8 33q0 23 8 33t20 10H392q12 0 20 -10t8 -33ZM230 112q-23 0 -36 12.5T181 158v25q0 20 13 32.5T230 228q23 0 36 -12.5T279 183V158q0 -21 -13 -33.5T230 112ZM230 554q23 0 36 -12.5T279 508V483q0 -20 -13 -32.5T230 438q-23 0 -36 12.5T181 483v25q0 21 13 33.5T230 554Z"
></glyph
><glyph unicode="&#xf8;" horiz-adv-x="410" d="M95 -67Q87 -85 74 -85q-11 0 -22.5 7T40 -61q0 5 3 13L81 41Q45 85 45 149V365q0 36 11.5 65.5T89 481t50.5 33T205 526q22 0 41.5 -5T283 508l32 73q7 18 21 18q11 0 22.5 -7T370 575q0 -6 -3 -13L328 472q37 -42 37 -107V149q0 -36 -11.5 -65.5T321 33T270.5 0T205 -12q-23 0 -42.5 5T126 6L95 -67ZM205 72q29 0 45.5 19T267 140V331L162 88Q178 72 205 72ZM205 442q-29 0 -45.5 -19T143 374V183L248 425q-17 17 -43 17Z"
></glyph
><glyph unicode="&#xf9;" horiz-adv-x="420" d="M210 -12q-36 0 -65.5 12T94 33T61.5 83.5T50 149V490q0 14 10.5 23T99 522q28 0 38.5 -9T148 490V139q0 -30 16.5 -49T210 71q29 0 45.5 19T272 139V490q0 14 10.5 23t38.5 9q28 0 38.5 -9T370 490V149q0 -36 -11.5 -65.5T326 33T275.5 0T210 -12ZM270 632q7 -9 7 -18q0 -12 -13.5 -23T236 580q-10 0 -18 10l-78 96q-7 9 -7 18q0 12 13.5 23T174 738q10 0 18 -10l78 -96Z"
></glyph
><glyph unicode="&#xfa;" horiz-adv-x="420" d="M210 -12q-36 0 -65.5 12T94 33T61.5 83.5T50 149V490q0 14 10.5 23T99 522q28 0 38.5 -9T148 490V139q0 -30 16.5 -49T210 71q29 0 45.5 19T272 139V490q0 14 10.5 23t38.5 9q28 0 38.5 -9T370 490V149q0 -36 -11.5 -65.5T326 33T275.5 0T210 -12ZM228 728q8 10 18 10q14 0 27.5 -11T287 704q0 -9 -7 -18L202 590q-8 -10 -18 -10q-14 0 -27.5 11T143 614q0 9 7 18l78 96Z"
></glyph
><glyph unicode="&#xfb;" horiz-adv-x="420" d="M210 -12q-36 0 -65.5 12T94 33T61.5 83.5T50 149V490q0 14 10.5 23T99 522q28 0 38.5 -9T148 490V139q0 -30 16.5 -49T210 71q29 0 45.5 19T272 139V490q0 14 10.5 23t38.5 9q28 0 38.5 -9T370 490V149q0 -36 -11.5 -65.5T326 33T275.5 0T210 -12ZM210 738q16 0 28 -13l81 -93q7 -9 7 -18q0 -12 -13.5 -23T285 580q-10 0 -18 10l-57 64L153 590q-8 -10 -18 -10q-14 0 -27.5 11T94 614q0 9 7 18l81 93q12 13 28 13Z"
></glyph
><glyph unicode="&#xfc;" horiz-adv-x="420" d="M210 -12q-36 0 -65.5 12T94 33T61.5 83.5T50 149V490q0 14 10.5 23T99 522q28 0 38.5 -9T148 490V139q0 -30 16.5 -49T210 71q29 0 45.5 19T272 139V490q0 14 10.5 23t38.5 9q28 0 38.5 -9T370 490V149q0 -36 -11.5 -65.5T326 33T275.5 0T210 -12ZM140 597q-20 0 -31.5 11T97 636v35q0 17 11.5 28T140 710q20 0 31.5 -11T183 671V636q0 -17 -11.5 -28T140 597ZM280 597q-20 0 -31.5 11T237 636v35q0 17 11.5 28T280 710q20 0 31.5 -11T323 671V636q0 -17 -11.5 -28T280 597Z"
></glyph
><glyph unicode="&#xfd;" horiz-adv-x="420" d="M370 -41q0 -89 -43.5 -136T202 -224q-38 0 -72.5 12.5T73 -177q-10 10 -10 21q0 10 4.5 20T79 -118.5t16 12t17 4.5q14 0 24 -10q14 -13 29.5 -20.5T198 -140q35 0 54.5 22.5T272 -47V12Q259 1 239 -5.5T200 -12Q127 -12 88.5 32.5T50 149V490q0 14 10.5 23T99 522q28 0 38.5 -9T148 490V140q0 -30 16.5 -49T210 72q27 0 44.5 17T272 134V490q0 14 10.5 23t38.5 9q28 0 38.5 -9T370 490V-41ZM228 728q8 10 18 10q14 0 27.5 -11T287 704q0 -9 -7 -18L202 590q-8 -10 -18 -10q-14 0 -27.5 11T143 614q0 9 7 18l78 96Z"
></glyph
><glyph unicode="&#xfe;" horiz-adv-x="415" d="M370 149Q370 77 331.5 32.5T220 -12q-19 0 -39 6.5T148 12V-188q0 -14 -10.5 -23T99 -220q-28 0 -38.5 9T50 -188V706q0 14 10.5 23T99 738q28 0 38.5 -9T148 706V502q13 11 33 17.5t39 6.5q73 0 111.5 -44.5T370 365V149ZM272 374q0 30 -16.5 49T210 442q-27 0 -44.5 -17T148 380V134q0 -28 17.5 -45T210 72q29 0 45.5 19T272 140V374Z"
></glyph
><glyph unicode="&#xff;" horiz-adv-x="420" d="M370 -41q0 -89 -43.5 -136T202 -224q-38 0 -72.5 12.5T73 -177q-10 10 -10 21q0 10 4.5 20T79 -118.5t16 12t17 4.5q14 0 24 -10q14 -13 29.5 -20.5T198 -140q35 0 54.5 22.5T272 -47V12Q259 1 239 -5.5T200 -12Q127 -12 88.5 32.5T50 149V490q0 14 10.5 23T99 522q28 0 38.5 -9T148 490V140q0 -30 16.5 -49T210 72q27 0 44.5 17T272 134V490q0 14 10.5 23t38.5 9q28 0 38.5 -9T370 490V-41ZM140 597q-20 0 -31.5 11T97 636v35q0 17 11.5 28T140 710q20 0 31.5 -11T183 671V636q0 -17 -11.5 -28T140 597ZM280 597q-20 0 -31.5 11T237 636v35q0 17 11.5 28T280 710q20 0 31.5 -11T323 671V636q0 -17 -11.5 -28T280 597Z"
></glyph
><glyph unicode="&#x152;" horiz-adv-x="666" d="M56 512q0 43 13.5 78t38 60.5T167 690t78 14H602q29 0 29 -44q0 -44 -29 -44H423V405H580q13 0 21 -10.5T609 361q0 -23 -8 -33.5T580 317H423V88H605q13 0 21 -10.5T634 44q0 -23 -8 -33.5T605 0H245Q202 0 167 14T107.5 53.5T69.5 114T56 192V512ZM319 616H245q-40 0 -62.5 -26T160 522V182q0 -42 22.5 -68T245 88h74V616Z"
></glyph
><glyph unicode="&#x153;" horiz-adv-x="630" d="M45 365q0 36 11 65.5T87.5 481t49 33T200 526q35 0 65 -12.5T315 475q18 23 47 37t67 14q36 0 64.5 -12t49 -33T574 432t11 -61q0 -57 -25.5 -91.5T471 225L392 200q-26 -8 -27 -23V137q0 -30 15.5 -47.5T425 72q29 0 44.5 17.5T485 137v18q0 14 10.5 23t38.5 9q28 0 38.5 -9T583 155v-6Q583 75 542 31.5T429 -12q-38 0 -67.5 13.5T315 39Q295 13 265 0.5T200 -12q-35 0 -63.5 12t-49 33T56 83.5T45 149V365ZM267 374q0 30 -16.5 49T205 442q-29 0 -45.5 -19T143 374V140q0 -30 16.5 -49T205 72q29 0 45.5 19T267 140V374ZM439 305q48 15 48 67v2q0 30 -16 49t-45 19q-29 0 -45 -19T365 374V276q4 7 20 12l54 17Z"
></glyph
><glyph unicode="&#x160;" horiz-adv-x="464" d="M156 523q0 -22 5 -38.5T178.5 454T212 427t53 -28l28 -13q63 -29 95 -74T420 197V170Q420 86 370.5 37T237 -12q-84 0 -133.5 49T54 170v22q0 14 11.5 23.5T106 225q29 0 40.5 -9.5T158 192V170q0 -46 21 -70T237 76q37 0 58 24t21 70v19q0 22 -5 38.5T293.5 258T260 285t-53 28l-28 13q-63 29 -95 74T52 515v19q0 84 49 133t130 49q81 0 130 -49T410 534V512q0 -14 -11.5 -23.5T358 479q-29 0 -40.5 9.5T306 512v22q0 42 -19 68t-56 26q-37 0 -56 -26T156 534V523ZM228 777q-16 0 -28 13l-81 93q-7 9 -7 18q0 12 13.5 23T153 935q10 0 18 -10l57 -64l57 64q8 10 18 10q14 0 27.5 -11T344 901q0 -9 -7 -18L256 790Q244 777 228 777Z"
></glyph
><glyph unicode="&#x161;" horiz-adv-x="389" d="M141 389q0 -17 3.5 -29.5t13.5 -23T185.5 316T230 295q63 -26 93 -63t30 -91V130Q353 95 340.5 68.5T307 24T257.5 -3T198 -12Q128 -12 85 25T42 125v18q0 14 10.5 23T91 175q28 0 38.5 -9T140 143V131q0 -29 15 -44.5T197 71q27 0 42 15.5T254 127q0 19 -3.5 33T237 185t-27.5 20.5T165 226q-61 24 -92 62T42 380q0 36 11.5 63T85 488.5t48 28t60 9.5q75 0 115 -39T348 380v-9q0 -14 -10.5 -23T299 339q-28 0 -38.5 9T250 371v12q0 29 -14 44.5T195 443q-27 0 -40.5 -14.5T141 389ZM192 583q-16 0 -28 13L83 689q-7 9 -7 18q0 12 13.5 23T117 741q10 0 18 -10l57 -64l57 64q8 10 18 10q14 0 27.5 -11T308 707q0 -9 -7 -18L220 596Q208 583 192 583Z"
></glyph
><glyph unicode="&#x178;" horiz-adv-x="490" d="M297 25Q297 11 285.5 1.5T245 -8q-29 0 -40.5 9.5T193 25V237Q127 252 90.5 302T54 424V679q0 14 11.5 23.5T106 712q29 0 40.5 -9.5T158 679V414q0 -42 22.5 -68T245 320q42 0 64.5 26T332 414V679q0 14 11.5 23.5T384 712q29 0 40.5 -9.5T436 679V424q0 -72 -37 -122T297 237V25ZM175 791q-20 0 -31.5 11T132 830v35q0 17 11.5 28T175 904q20 0 31.5 -11T218 865V830q0 -17 -11.5 -28T175 791ZM315 791q-20 0 -31.5 11T272 830v35q0 17 11.5 28T315 904q20 0 31.5 -11T358 865V830q0 -17 -11.5 -28T315 791Z"
></glyph
><glyph unicode="&#x17d;" horiz-adv-x="439" d="M373 88q29 0 29 -44Q402 0 373 0H80Q48 0 48 36V85q0 39 5 72.5t18.5 67T109 294t62 81q35 41 56.5 71.5T261 501t16 44.5t4 41.5v29H79q-29 0 -29 44q0 44 29 44H354q31 0 31 -36V619q0 -39 -5 -72.5t-18.5 -67T324 410T262 329Q227 288 205.5 257.5T172 203T156 158.5T152 117V88H373ZM220 777q-16 0 -28 13l-81 93q-7 9 -7 18q0 12 13.5 23T145 935q10 0 18 -10l57 -64l57 64q8 10 18 10q14 0 27.5 -11T336 901q0 -9 -7 -18L248 790Q236 777 220 777Z"
></glyph
><glyph unicode="&#x17e;" horiz-adv-x="365" d="M137 84H309q11 0 19.5 -9.5T337 42Q337 19 328.5 9.5T309 0H66Q38 0 38 35V82q0 26 3.5 49T55 176t27 44.5T126 270q30 29 49 50.5t30.5 39T221 392t4 32v6H67q-11 0 -19.5 9.5T39 472q0 23 8.5 32.5T67 514H296q28 0 28 -35V432q0 -26 -3.5 -49T307 338T280 293.5T236 244Q206 215 187 193.5t-30.5 -39T141 121.5T137 90V84ZM184 583q-16 0 -28 13L75 689q-7 9 -7 18q0 12 13.5 23T109 741q10 0 18 -10l57 -64l57 64q8 10 18 10q14 0 27.5 -11T300 707q0 -9 -7 -18L212 596Q200 583 184 583Z"
></glyph
><glyph unicode="&#x192;" horiz-adv-x="343" d="M99 514v84q0 66 37.5 103T235 738q34 0 62 -10.5T340 700q8 -10 8 -20q0 -18 -14.5 -33T305 632q-13 0 -27 11q-8 6 -17 9.5T241 656q-20 0 -32 -13T197 602V514h93q11 0 19.5 -9.5T318 472q0 -23 -8.5 -32.5T290 430H197V-84q0 -66 -37.5 -103T61 -224q-34 0 -62 10.5T-44 -186q-8 10 -8 20q0 18 14.5 33T-9 -118q13 0 27 -11q8 -6 17 -9.5T55 -142q20 0 32 13t12 41V430H44q-11 0 -19.5 9.5T16 472q0 23 8.5 32.5T44 514H99Z"
></glyph
><glyph unicode="&#x2c6;" horiz-adv-x="278" d="M139 743q16 0 28 -13l81 -93q7 -9 7 -18q0 -12 -13.5 -23T214 585q-10 0 -18 10l-57 64L82 595Q74 585 64 585q-14 0 -27.5 11T23 619q0 9 7 18l81 93q12 13 28 13Z"
></glyph
><glyph unicode="&#x2dc;" horiz-adv-x="278" d="M191 600q-20 0 -34 8t-24 17t-17.5 17T101 650Q89 650 89 633v-5q0 -10 -7.5 -16T55 606q-19 0 -26.5 6T21 629v12q0 35 18 56t47 21q20 0 34 -8t24 -17t17.5 -17T176 668q12 0 12 17v5q0 10 7.5 16t26.5 6q19 0 26.5 -6T256 689V677q0 -35 -18 -56T191 600Z"
></glyph
><glyph unicode="&#x2013;" d="M512 333q0 -23 -8 -33T484 290H16Q4 290 -4 300t-8 33q0 23 8 33t20 10H484q12 0 20 -10t8 -33Z"
></glyph
><glyph unicode="&#x2014;" horiz-adv-x="1000" d="M1012 333q0 -23 -8 -33T984 290H16Q4 290 -4 300t-8 33q0 23 8 33t20 10H984q12 0 20 -10t8 -33Z"
></glyph
><glyph unicode="&#x2018;" horiz-adv-x="232" d="M170 574q0 -23 -14 -36T116 525q-26 0 -40 13T62 574v26q0 20 4.5 43t13 46t21 45T130 773q11 12 29 12q18 0 34.5 -14T210 740q0 -9 -7 -19Q184 692 177 662t-7 -67V574Z"
></glyph
><glyph unicode="&#x2019;" horiz-adv-x="232" d="M62 737q0 23 14 36t40 13q26 0 40 -13t14 -36V711q0 -20 -4.5 -43t-13 -46T131 577T102 538Q91 526 73 526q-18 0 -34.5 14T22 571q0 8 7 19q19 29 26 59t7 67v21Z"
></glyph
><glyph unicode="&#x201a;" horiz-adv-x="232" d="M62 70q0 23 14 36t40 13q26 0 40 -13T170 70V44Q170 24 165.5 1t-13 -46T131 -90t-29 -39Q91 -141 73 -141q-18 0 -34.5 14T22 -96q0 8 7 19q19 29 26 59t7 67V70Z"
></glyph
><glyph unicode="&#x201c;" horiz-adv-x="388" d="M170 574q0 -23 -14 -36T116 525q-26 0 -40 13T62 574v26q0 20 4.5 43t13 46t21 45T130 773q11 12 29 12q18 0 34.5 -14T210 740q0 -9 -7 -19Q184 692 177 662t-7 -67V574ZM326 574q0 -23 -14 -36T272 525q-26 0 -40 13t-14 36v26q0 20 4.5 43t13 46t21 45T286 773q11 12 29 12q18 0 34.5 -14T366 740q0 -9 -7 -19Q340 692 333 662t-7 -67V574Z"
></glyph
><glyph unicode="&#x201d;" horiz-adv-x="388" d="M62 737q0 23 14 36t40 13q26 0 40 -13t14 -36V711q0 -20 -4.5 -43t-13 -46T131 577T102 538Q91 526 73 526q-18 0 -34.5 14T22 571q0 8 7 19q19 29 26 59t7 67v21ZM218 737q0 23 14 36t40 13q26 0 40 -13t14 -36V711q0 -20 -4.5 -43t-13 -46T287 577T258 538Q247 526 229 526q-18 0 -34.5 14T178 571q0 8 7 19q19 29 26 59t7 67v21Z"
></glyph
><glyph unicode="&#x201e;" horiz-adv-x="388" d="M62 70q0 23 14 36t40 13q26 0 40 -13T170 70V44Q170 24 165.5 1t-13 -46T131 -90t-29 -39Q91 -141 73 -141q-18 0 -34.5 14T22 -96q0 8 7 19q19 29 26 59t7 67V70ZM218 70q0 23 14 36t40 13q26 0 40 -13T326 70V44Q326 24 321.5 1t-13 -46T287 -90t-29 -39q-11 -12 -29 -12q-18 0 -34.5 14T178 -96q0 8 7 19q19 29 26 59t7 67V70Z"
></glyph
><glyph unicode="&#x2020;" horiz-adv-x="468" d="M422 530q0 -24 -8.5 -34T393 486H285V-110q0 -14 -11.5 -23T234 -142q-28 0 -39.5 9T183 -110V486H75q-12 0 -20.5 10T46 530q0 24 8.5 34T75 574H183V728q0 14 11.5 23.5T234 761q28 0 39.5 -9.5T285 728V574H393q12 0 20.5 -10T422 530Z"
></glyph
><glyph unicode="&#x2021;" horiz-adv-x="468" d="M422 89q0 -24 -8.5 -34T393 45H285V-109q0 -14 -11.5 -23.5T234 -142q-28 0 -39.5 9.5T183 -109V45H75Q63 45 54.5 55T46 89q0 24 8.5 34T75 133H183V486H75q-12 0 -20.5 10T46 530q0 24 8.5 34T75 574H183V729q0 14 11.5 23t39.5 9q28 0 39.5 -9T285 729V574H393q12 0 20.5 -10T422 530q0 -24 -8.5 -34T393 486H285V133H393q12 0 20.5 -10T422 89Z"
></glyph
><glyph unicode="&#x2022;" horiz-adv-x="344" d="M172 196q-55 0 -87.5 37T52 331q0 61 32.5 98T172 466q55 0 87.5 -37T292 331q0 -61 -32.5 -98T172 196Z"
></glyph
><glyph unicode="&#x2026;" horiz-adv-x="696" d="M116 -12Q90 -12 76 1T62 37V70q0 23 14 36t40 13q26 0 40 -13T170 70V37Q170 14 156 1T116 -12ZM580 -12q-26 0 -40 13T526 37V70q0 23 14 36t40 13q26 0 40 -13T634 70V37Q634 14 620 1T580 -12ZM348 -12q-26 0 -40 13T294 37V70q0 23 14 36t40 13q26 0 40 -13T402 70V37Q402 14 388 1T348 -12Z"
></glyph
><glyph unicode="&#x2030;" horiz-adv-x="826" d="M152 358q-49 0 -79.5 31T42 471V603q0 51 30.5 82T152 716q49 0 79 -31t30 -82V471q0 -51 -30 -82T152 358ZM152 650q-31 0 -31 -38V462q0 -38 31 -38q31 0 31 38V612q0 38 -31 38ZM399 696q6 15 20 15q14 0 28.5 -8.5T462 683q0 -6 -3 -13L184 8Q178 -7 164 -7q-14 0 -28.5 8.5T121 21q0 5 3 13L399 696ZM431 -12q-49 0 -79.5 31T321 101V233q0 51 30.5 82T431 346q49 0 79 -31t30 -82V101Q540 50 510 19T431 -12ZM431 280q-31 0 -31 -38V92q0 -38 31 -38q31 0 31 38V242q0 38 -31 38ZM675 -12q-49 0 -79.5 31T565 101V233q0 51 30.5 82T675 346q49 0 79 -31t30 -82V101Q784 50 754 19T675 -12ZM675 280q-31 0 -31 -38V92q0 -38 31 -38q31 0 31 38V242q0 38 -31 38Z"
></glyph
><glyph unicode="&#x2039;" horiz-adv-x="288" d="M54 309q0 7 3 11.5T66 332L180 447q7 8 17.5 7T221 440q12 -12 12.5 -22T227 401L133 309l94 -92q7 -7 6.5 -17T221 178Q208 165 197.5 164T180 171L66 286q-6 7 -9 11.5T54 309Z"
></glyph
><glyph unicode="&#x203a;" horiz-adv-x="288" d="M234 309q0 -7 -3 -11.5T222 286L108 171q-7 -8 -17.5 -7T67 178Q55 190 54.5 200T61 217l94 92L61 401q-7 7 -6.5 17T67 440q13 13 23.5 14T108 447L222 332q6 -7 9 -11.5T234 309Z"
></glyph
><glyph unicode="&#x20ac;" horiz-adv-x="506" d="M74 434v90q0 43 13.5 78t38 60.5T185 702t78 14q43 0 78 -14t59.5 -39.5t38 -60.5T452 524V490q0 -14 -11.5 -23.5T400 457q-29 0 -40.5 9.5T348 490v44q0 42 -23 68t-62 26q-40 0 -62.5 -26T178 534V434H312q11 0 17 -5.5T335 409q0 -14 -6 -19.5T312 384H178V320H312q11 0 17 -5.5T335 295q0 -14 -6 -19.5T312 270H178V170q0 -42 22.5 -68T263 76q39 0 62 26t23 68v44q0 14 11.5 23.5T400 247q29 0 40.5 -9.5T452 214V180q0 -43 -13.5 -78t-38 -60.5T341 2T263 -12q-43 0 -78 14T125.5 41.5T87.5 102T74 180v90H34q-11 0 -17 5.5T11 295q0 14 6 19.5T34 320H74v64H34q-11 0 -17 5.5T11 409q0 14 6 19.5T34 434H74Z"
></glyph
><glyph unicode="&#x2122;" horiz-adv-x="554" d="M107 383q-17 0 -24.5 6T75 403V645H27q-8 0 -14 6.5T7 672q0 15 6 21.5T27 700H186q20 0 20 -28q0 -27 -20 -27H138V403q0 -8 -7 -14t-24 -6ZM374 383q-17 0 -24.5 6T342 403V609q0 41 -30 41q-29 0 -29 -41V403q0 -8 -7 -14t-25 -6q-17 0 -24 6t-7 14V613q0 45 25.5 68.5T309 705q19 0 36.5 -7.5T374 676q11 14 28.5 21.5T439 705q38 0 63.5 -23.5T528 613V403q0 -8 -7 -14t-24 -6q-18 0 -25 6t-7 14V609q0 41 -29 41q-30 0 -30 -41V403q0 -8 -7.5 -14T374 383Z"
></glyph
></font
></defs
><g style="font-family: &quot;CoreMellowW01-57CnMedium&quot;; font-size:50;fill:black"
><text x="20" y="50"
>!&quot;#$%&amp;&#39;()*+,-./0123456789:;&#229;&lt;&gt;?</text
><text x="20" y="100"
>@ABCDEFGHIJKLMNOPQRSTUVWXYZ[\]^_</text
><text x="20" y="150"
>` abcdefghijklmnopqrstuvwxyz|{}~</text
></g
></svg
>